layer at (0,0) size 0x0 scrollHeight 152
  LayoutView at (0,0) size 0x0
layer at (0,0) size 800x118
  LayoutBlockFlow {HTML} at (0,0) size 800x118
    LayoutBlockFlow {BODY} at (8,8) size 784x102
layer at (8,8) size 102x102
  LayoutBlockFlow {DIV} at (0,0) size 102x102 [border: (1px solid #000000)]
layer at (50,50) size 102x102 backgroundClip at (0,0) size 1000x118 clip at (0,0) size 1000x118
  LayoutBlockFlow (positioned) {DIV} at (50,50) size 102x102 [border: (1px solid #000000)]
