layer at (0,0) size 480x360
  LayoutView at (0,0) size 480x360
layer at (0,0) size 480x360
  LayoutSVGRoot {svg} at (0,0) size 480x360
    LayoutSVGHiddenContainer {defs} at (0,0) size 0x0
    LayoutSVGContainer {g} at (0,0) size 480x360
      LayoutSVGText {text} at (120,13) size 230x33 contains 1 chunk(s)
        LayoutSVGInlineText {#text} at (0,0) size 230x33
          chunk 1 text run 1 at (120.00,40.00) startOffset 0 endOffset 20 width 229.10: "Text fill and stroke"
      LayoutSVGContainer {g} at (48,1) size 425x356
        LayoutSVGText {text} at (60,13) size 217x332 contains 1 chunk(s)
          LayoutSVGInlineText {#text} at (0,0) size 217x332
            chunk 1 text run 1 at (60.00,280.00) startOffset 0 endOffset 1 width 216.65: "A"
        LayoutSVGText {text} at (260,13) size 201x332 contains 1 chunk(s)
          LayoutSVGInlineText {#text} at (0,0) size 201x332
            chunk 1 text run 1 at (260.00,280.00) startOffset 0 endOffset 1 width 200.10: "B"
      LayoutSVGText {text} at (10,304) size 264x45 contains 1 chunk(s)
        LayoutSVGInlineText {#text} at (0,0) size 264x45
          chunk 1 text run 1 at (10.00,340.00) startOffset 0 endOffset 16 width 263.34: "$Revision: 1.4 $"
      LayoutSVGRect {rect} at (0,0) size 480x360 [stroke={[type=SOLID] [color=#000000]}] [x=1.00] [y=1.00] [width=478.00] [height=358.00]
