layer at (0,0) size 800x600 scrollHeight 33554431
  LayoutView at (0,0) size 800x600
layer at (0,0) size 800x33554431 backgroundClip at (0,0) size 800x600 clip at (0,0) size 800x600
  LayoutBlockFlow {HTML} at (0,0) size 800x33554432
    LayoutBlockFlow {BODY} at (8,8) size 784x33554432
      LayoutBlockFlow {DIV} at (0,0) size 784x33554432
      LayoutBlockFlow {DIV} at (0,33554432) size 784x33554432
      LayoutBlockFlow {DIV} at (0,33554432) size 784x0
layer at (8,8) size 161x33554431 backgroundClip at (8,8) size 161x592 clip at (9,9) size 159x591 scrollHeight 33554429
  LayoutTextControl {TEXTAREA} at (0,0) size 161x33554432 [bgcolor=#FFFFFF] [border: (1px solid #000000)]
    LayoutBlockFlow {DIV} at (3,3) size 155x13
layer at (8,33554431) size 784x33554430 backgroundClip at (0,0) size 0x0 clip at (0,0) size 0x0 scrollHeight 33554429
  LayoutTextControl {TEXTAREA} at (0,0) size 784x33554432 [bgcolor=#FFFFFF] [border: (1px solid #000000)]
    LayoutBlockFlow {DIV} at (3,3) size 778x13
layer at (8,33554431) size 161x33554430 backgroundClip at (0,0) size 0x0 clip at (0,0) size 0x0 scrollHeight 33554429
  LayoutTextControl {TEXTAREA} at (0,33554432) size 161x33554432 [bgcolor=#FFFFFF] [border: (1px solid #000000)]
    LayoutBlockFlow {DIV} at (3,3) size 155x13
