layer at (0,0) size 800x600
  LayoutView at (0,0) size 800x600
layer at (0,0) size 450x500
  LayoutSVGRoot {svg} at (29,26) size 421x455
    LayoutSVGText {text} at (106,26) size 238x17 contains 1 chunk(s)
      LayoutSVGInlineText {#text} at (0,0) size 238x17
        chunk 1 (middle anchor) text run 1 at (106.27,40.00) startOffset 0 endOffset 34 width 237.47: "Text on Path with trailing <tspan>"
    LayoutSVGRect {rect} at (29,49) size 392x22 [stroke={[type=SOLID] [color=#000000]}] [fill={[type=SOLID] [color=#000000]}] [x=30.00] [y=50.00] [width=390.00] [height=20.00]
    LayoutSVGRect {rect} at (29,69) size 392x122 [stroke={[type=SOLID] [color=#000000]}] [fill={[type=SOLID] [color=#FFFFFF]}] [x=30.00] [y=70.00] [width=390.00] [height=120.00]
    LayoutSVGText {text} at (40,51) size 316x17 contains 1 chunk(s)
      LayoutSVGInlineText {#text} at (0,0) size 316x17
        chunk 1 text run 1 at (40.00,64.00) startOffset 0 endOffset 55 width 315.32: "Text with embedded textPath and multiple trailing tspan"
    LayoutSVGRect {rect} at (29,194) size 392x22 [stroke={[type=SOLID] [color=#000000]}] [fill={[type=SOLID] [color=#000000]}] [x=30.00] [y=195.00] [width=390.00] [height=20.00]
    LayoutSVGRect {rect} at (29,214) size 392x122 [stroke={[type=SOLID] [color=#000000]}] [fill={[type=SOLID] [color=#FFFFFF]}] [x=30.00] [y=215.00] [width=390.00] [height=120.00]
    LayoutSVGText {text} at (40,196) size 176x17 contains 1 chunk(s)
      LayoutSVGInlineText {#text} at (0,0) size 176x17
        chunk 1 text run 1 at (40.00,209.00) startOffset 0 endOffset 30 width 175.62: "textPath has startOffset=\"10%\""
    LayoutSVGRect {rect} at (29,339) size 392x22 [stroke={[type=SOLID] [color=#000000]}] [fill={[type=SOLID] [color=#000000]}] [x=30.00] [y=340.00] [width=390.00] [height=20.00]
    LayoutSVGRect {rect} at (29,359) size 392x122 [stroke={[type=SOLID] [color=#000000]}] [fill={[type=SOLID] [color=#FFFFFF]}] [x=30.00] [y=360.00] [width=390.00] [height=120.00]
    LayoutSVGText {text} at (40,341) size 228x17 contains 1 chunk(s)
      LayoutSVGInlineText {#text} at (0,0) size 228x17
        chunk 1 text run 1 at (40.00,354.00) startOffset 0 endOffset 41 width 227.82: "textPath with startOffset and text-anchor"
    LayoutSVGHiddenContainer {defs} at (0,0) size 0x0
      LayoutSVGPath {path} at (0,0) size 0x0 [stroke={[type=SOLID] [color=#0000FF]}] [data="M 100 0 C 100 -125 240 -125 240 0"]
    LayoutSVGContainer {g} at (50,60) size 400x129 [transform={m=((1.00,0.00)(0.00,1.00)) t=(40.00,185.00)}]
      LayoutSVGContainer {use} at (139,60) size 142x125
        LayoutSVGPath {path} at (139,60) size 142x125 [stroke={[type=SOLID] [color=#0000FF]}] [data="M 100 0 C 100 -125 240 -125 240 0"]
      LayoutSVGText {text} at (10,-118) size 410x122 contains 1 chunk(s)
        LayoutSVGInlineText {#text} at (0,103) size 90x18
          chunk 1 text run 1 at (10.00,0.00) startOffset 0 endOffset 14 width 89.78: "This is simple"
        LayoutSVGTextPath {textPath} at (0,0) size 152x118
          LayoutSVGInlineText {#text} at (75,28) size 47x89
            chunk 1 text run 1 at (100.02,-2.28) startOffset 0 endOffset 1 width 4.45: "t"
            chunk 1 text run 2 at (100.20,-8.06) startOffset 1 endOffset 2 width 7.10: "e"
            chunk 1 text run 3 at (100.77,-15.59) startOffset 2 endOffset 3 width 8.00: "x"
            chunk 1 text run 4 at (101.53,-21.70) startOffset 3 endOffset 4 width 4.45: "t"
            chunk 1 text run 5 at (102.25,-26.04) startOffset 4 endOffset 5 width 4.00: " "
            chunk 1 text run 6 at (103.50,-32.02) startOffset 5 endOffset 6 width 8.00: "o"
            chunk 1 text run 7 at (105.55,-39.55) startOffset 6 endOffset 7 width 8.00: "n"
            chunk 1 text run 8 at (107.53,-45.32) startOffset 7 endOffset 8 width 4.00: " "
            chunk 1 text run 9 at (109.65,-50.51) startOffset 8 endOffset 9 width 7.10: "a"
            chunk 1 text run 10 at (112.00,-55.40) startOffset 9 endOffset 10 width 4.00: " "
            chunk 1 text run 11 at (114.97,-60.68) startOffset 10 endOffset 11 width 8.00: "p"
            chunk 1 text run 12 at (119.21,-66.94) startOffset 11 endOffset 12 width 7.10: "a"
            chunk 1 text run 13 at (122.78,-71.37) startOffset 12 endOffset 13 width 4.45: "t"
            chunk 1 text run 14 at (127.14,-75.94) startOffset 13 endOffset 14 width 8.00: "h"
          LayoutSVGTSpan {tspan} at (0,0) size 94x35
            LayoutSVGInlineText {#text} at (105,0) size 93x35
              chunk 1 text run 1 at (134.60,-82.16) startOffset 0 endOffset 1 width 11.55: "w"
              chunk 1 text run 2 at (141.39,-86.41) startOffset 1 endOffset 2 width 4.45: "i"
              chunk 1 text run 3 at (145.35,-88.38) startOffset 2 endOffset 3 width 4.45: "t"
              chunk 1 text run 4 at (151.17,-90.67) startOffset 3 endOffset 4 width 8.00: "h"
              chunk 1 text run 5 at (156.92,-92.28) startOffset 4 endOffset 5 width 4.00: " "
              chunk 1 text run 6 at (162.85,-93.31) startOffset 5 endOffset 6 width 8.00: "n"
              chunk 1 text run 7 at (170.38,-93.75) startOffset 6 endOffset 7 width 7.10: "e"
              chunk 1 text run 8 at (177.03,-93.33) startOffset 7 endOffset 8 width 6.23: "s"
              chunk 1 text run 9 at (182.32,-92.45) startOffset 8 endOffset 9 width 4.45: "t"
              chunk 1 text run 10 at (187.87,-90.98) startOffset 9 endOffset 10 width 7.10: "e"
              chunk 1 text run 11 at (194.95,-88.24) startOffset 10 endOffset 11 width 8.00: "d"
          LayoutSVGTSpan {tspan} at (0,0) size 41x41
            LayoutSVGInlineText {#text} at (186,19) size 41x41
              chunk 1 text run 1 at (200.23,-85.50) startOffset 0 endOffset 1 width 4.00: " "
              chunk 1 text run 2 at (203.81,-83.26) startOffset 1 endOffset 2 width 4.45: "t"
              chunk 1 text run 3 at (208.16,-80.07) startOffset 2 endOffset 3 width 6.23: "s"
              chunk 1 text run 4 at (213.42,-75.41) startOffset 3 endOffset 4 width 8.00: "p"
              chunk 1 text run 5 at (218.59,-69.76) startOffset 4 endOffset 5 width 7.10: "a"
              chunk 1 text run 6 at (223.02,-63.81) startOffset 5 endOffset 6 width 8.00: "n"
        LayoutSVGInlineText {#text} at (221,39) size 32x18
          chunk 1 text run 1 at (231.02,-63.81) startOffset 0 endOffset 5 width 32.00: " xxx "
        LayoutSVGTSpan {tspan} at (0,0) size 53x19
          LayoutSVGInlineText {#text} at (263,39) size 53x18
            chunk 1 text run 1 at (273.02,-63.81) startOffset 0 endOffset 9 width 52.44: "all with "
        LayoutSVGInlineText {#text} at (315,39) size 95x18
          chunk 1 text run 1 at (325.46,-63.81) startOffset 0 endOffset 16 width 94.20: "different links."
    LayoutSVGContainer {g} at (50,205) size 400x129 [transform={m=((1.00,0.00)(0.00,1.00)) t=(40.00,330.00)}]
      LayoutSVGContainer {use} at (139,205) size 142x125
        LayoutSVGPath {path} at (139,205) size 142x125 [stroke={[type=SOLID] [color=#0000FF]}] [data="M 100 0 C 100 -125 240 -125 240 0"]
      LayoutSVGText {text} at (10,-118) size 421x122 contains 1 chunk(s)
        LayoutSVGInlineText {#text} at (0,103) size 90x18
          chunk 1 text run 1 at (10.00,0.00) startOffset 0 endOffset 14 width 89.78: "This is simple"
        LayoutSVGTextPath {textPath} at (0,0) size 161x93
          LayoutSVGInlineText {#text} at (78,13) size 66x79
            chunk 1 text run 1 at (102.69,-28.35) startOffset 0 endOffset 1 width 4.45: "t"
            chunk 1 text run 2 at (103.98,-34.00) startOffset 1 endOffset 2 width 7.10: "e"
            chunk 1 text run 3 at (106.01,-41.01) startOffset 2 endOffset 3 width 8.00: "x"
            chunk 1 text run 4 at (108.20,-47.06) startOffset 3 endOffset 4 width 4.45: "t"
            chunk 1 text run 5 at (109.86,-50.96) startOffset 4 endOffset 5 width 4.00: " "
            chunk 1 text run 6 at (112.42,-56.21) startOffset 5 endOffset 6 width 8.00: "o"
            chunk 1 text run 7 at (116.57,-63.20) startOffset 6 endOffset 7 width 8.00: "n"
            chunk 1 text run 8 at (120.03,-68.03) startOffset 7 endOffset 8 width 4.00: " "
            chunk 1 text run 9 at (123.58,-72.27) startOffset 8 endOffset 9 width 7.10: "a"
            chunk 1 text run 10 at (127.50,-76.29) startOffset 9 endOffset 10 width 4.00: " "
            chunk 1 text run 11 at (131.96,-80.16) startOffset 10 endOffset 11 width 8.00: "p"
            chunk 1 text run 12 at (138.19,-84.55) startOffset 11 endOffset 12 width 7.10: "a"
            chunk 1 text run 13 at (143.19,-87.35) startOffset 12 endOffset 13 width 4.45: "t"
            chunk 1 text run 14 at (148.91,-89.86) startOffset 13 endOffset 14 width 8.00: "h"
          LayoutSVGTSpan {tspan} at (0,0) size 90x44
            LayoutSVGInlineText {#text} at (137,0) size 89x44
              chunk 1 text run 1 at (158.28,-92.57) startOffset 0 endOffset 1 width 11.55: "w"
              chunk 1 text run 2 at (166.22,-93.63) startOffset 1 endOffset 2 width 4.45: "i"
              chunk 1 text run 3 at (170.66,-93.75) startOffset 2 endOffset 3 width 4.45: "t"
              chunk 1 text run 4 at (176.87,-93.35) startOffset 3 endOffset 4 width 8.00: "h"
              chunk 1 text run 5 at (182.81,-92.34) startOffset 4 endOffset 5 width 4.00: " "
              chunk 1 text run 6 at (188.56,-90.76) startOffset 5 endOffset 6 width 8.00: "n"
              chunk 1 text run 7 at (195.62,-87.93) startOffset 6 endOffset 7 width 7.10: "e"
              chunk 1 text run 8 at (201.42,-84.79) startOffset 7 endOffset 8 width 6.23: "s"
              chunk 1 text run 9 at (205.89,-81.80) startOffset 8 endOffset 9 width 4.45: "t"
              chunk 1 text run 10 at (210.37,-78.22) startOffset 9 endOffset 10 width 7.10: "e"
              chunk 1 text run 11 at (215.80,-72.95) startOffset 10 endOffset 11 width 8.00: "d"
          LayoutSVGTSpan {tspan} at (0,0) size 34x44
            LayoutSVGInlineText {#text} at (205,39) size 34x44
              chunk 1 text run 1 at (219.70,-68.38) startOffset 0 endOffset 1 width 4.00: " "
              chunk 1 text run 2 at (222.17,-65.05) startOffset 1 endOffset 2 width 4.45: "t"
              chunk 1 text run 3 at (225.12,-60.54) startOffset 2 endOffset 3 width 6.23: "s"
              chunk 1 text run 4 at (228.55,-54.31) startOffset 3 endOffset 4 width 8.00: "p"
              chunk 1 text run 5 at (231.63,-47.49) startOffset 4 endOffset 5 width 7.10: "a"
              chunk 1 text run 6 at (234.24,-40.22) startOffset 5 endOffset 6 width 8.00: "n"
        LayoutSVGInlineText {#text} at (232,63) size 32x18
          chunk 1 text run 1 at (242.24,-40.22) startOffset 0 endOffset 5 width 32.00: " xxx "
        LayoutSVGTSpan {tspan} at (0,0) size 53x19
          LayoutSVGInlineText {#text} at (274,63) size 53x18
            chunk 1 text run 1 at (284.24,-40.22) startOffset 0 endOffset 9 width 52.44: "all with "
        LayoutSVGInlineText {#text} at (326,63) size 95x18
          chunk 1 text run 1 at (336.68,-40.22) startOffset 0 endOffset 16 width 94.20: "different links."
    LayoutSVGContainer {g} at (50,350) size 400x129 [transform={m=((1.00,0.00)(0.00,1.00)) t=(40.00,475.00)}]
      LayoutSVGContainer {use} at (139,350) size 142x125
        LayoutSVGPath {path} at (139,350) size 142x125 [stroke={[type=SOLID] [color=#0000FF]}] [data="M 100 0 C 100 -125 240 -125 240 0"]
      LayoutSVGText {text} at (10,-118) size 423x122 contains 1 chunk(s)
        LayoutSVGInlineText {#text} at (0,103) size 90x18
          chunk 1 text run 1 at (10.00,0.00) startOffset 0 endOffset 14 width 89.78: "This is simple"
        LayoutSVGTextPath {textPath} at (0,0) size 162x88
          LayoutSVGInlineText {#text} at (79,11) size 70x76
            chunk 1 (middle anchor) text run 1 at (103.88,-33.58) startOffset 0 endOffset 1 width 4.45: "t"
            chunk 1 (middle anchor) text run 2 at (105.38,-38.99) startOffset 1 endOffset 2 width 7.10: "e"
            chunk 1 (middle anchor) text run 3 at (107.87,-46.22) startOffset 2 endOffset 3 width 8.00: "x"
            chunk 1 (middle anchor) text run 4 at (110.31,-51.96) startOffset 3 endOffset 4 width 4.45: "t"
            chunk 1 (middle anchor) text run 5 at (112.13,-55.64) startOffset 4 endOffset 5 width 4.00: " "
            chunk 1 (middle anchor) text run 6 at (115.12,-60.92) startOffset 5 endOffset 6 width 8.00: "o"
            chunk 1 (middle anchor) text run 7 at (119.64,-67.51) startOffset 6 endOffset 7 width 8.00: "n"
            chunk 1 (middle anchor) text run 8 at (123.43,-72.11) startOffset 7 endOffset 8 width 4.00: " "
            chunk 1 (middle anchor) text run 9 at (127.34,-76.14) startOffset 8 endOffset 9 width 7.10: "a"
            chunk 1 (middle anchor) text run 10 at (131.45,-79.75) startOffset 9 endOffset 10 width 4.00: " "
            chunk 1 (middle anchor) text run 11 at (136.32,-83.35) startOffset 10 endOffset 11 width 8.00: "p"
            chunk 1 (middle anchor) text run 12 at (142.80,-87.15) startOffset 11 endOffset 12 width 7.10: "a"
            chunk 1 (middle anchor) text run 13 at (148.08,-89.54) startOffset 12 endOffset 13 width 4.45: "t"
            chunk 1 (middle anchor) text run 14 at (153.97,-91.53) startOffset 13 endOffset 14 width 8.00: "h"
          LayoutSVGTSpan {tspan} at (0,0) size 86x49
            LayoutSVGInlineText {#text} at (145,0) size 86x49
              chunk 1 (middle anchor) text run 1 at (163.56,-93.40) startOffset 0 endOffset 1 width 11.55: "w"
              chunk 1 (middle anchor) text run 2 at (171.55,-93.73) startOffset 1 endOffset 2 width 4.45: "i"
              chunk 1 (middle anchor) text run 3 at (175.98,-93.45) startOffset 2 endOffset 3 width 4.45: "t"
              chunk 1 (middle anchor) text run 4 at (182.15,-92.48) startOffset 3 endOffset 4 width 8.00: "h"
              chunk 1 (middle anchor) text run 5 at (187.92,-90.96) startOffset 4 endOffset 5 width 4.00: " "
              chunk 1 (middle anchor) text run 6 at (193.57,-88.86) startOffset 5 endOffset 6 width 8.00: "n"
              chunk 1 (middle anchor) text run 7 at (200.28,-85.48) startOffset 6 endOffset 7 width 7.10: "e"
              chunk 1 (middle anchor) text run 8 at (205.89,-81.80) startOffset 7 endOffset 8 width 6.23: "s"
              chunk 1 (middle anchor) text run 9 at (210.04,-78.51) startOffset 8 endOffset 9 width 4.45: "t"
              chunk 1 (middle anchor) text run 10 at (214.24,-74.58) startOffset 9 endOffset 10 width 7.10: "e"
              chunk 1 (middle anchor) text run 11 at (219.29,-68.89) startOffset 10 endOffset 11 width 8.00: "d"
          LayoutSVGTSpan {tspan} at (0,0) size 33x44
            LayoutSVGInlineText {#text} at (208,44) size 32x44
              chunk 1 (middle anchor) text run 1 at (222.80,-64.14) startOffset 0 endOffset 1 width 4.00: " "
              chunk 1 (middle anchor) text run 2 at (225.11,-60.54) startOffset 1 endOffset 2 width 4.45: "t"
              chunk 1 (middle anchor) text run 3 at (227.77,-55.84) startOffset 2 endOffset 3 width 6.23: "s"
              chunk 1 (middle anchor) text run 4 at (230.77,-49.55) startOffset 3 endOffset 4 width 8.00: "p"
              chunk 1 (middle anchor) text run 5 at (233.54,-42.35) startOffset 4 endOffset 5 width 7.10: "a"
              chunk 1 (middle anchor) text run 6 at (235.68,-35.28) startOffset 5 endOffset 6 width 8.00: "n"
        LayoutSVGInlineText {#text} at (233,68) size 32x18
          chunk 1 text run 1 at (243.68,-35.28) startOffset 0 endOffset 5 width 32.00: " xxx "
        LayoutSVGTSpan {tspan} at (0,0) size 54x19
          LayoutSVGInlineText {#text} at (275,68) size 53x18
            chunk 1 text run 1 at (285.68,-35.28) startOffset 0 endOffset 9 width 52.44: "all with "
        LayoutSVGInlineText {#text} at (328,68) size 95x18
          chunk 1 text run 1 at (338.12,-35.28) startOffset 0 endOffset 16 width 94.20: "different links."
