layer at (0,0) size 800x600
  LayoutView at (0,0) size 800x600
layer at (0,0) size 800x600
  LayoutSVGRoot {svg} at (47,3) size 378x59
    LayoutSVGContainer {g} at (47,4) size 193x58
      LayoutSVGPath {svg:line} at (47,4) size 6x58 [stroke={[type=SOLID] [color=#008000]}] [fill={[type=SOLID] [color=#000000]}] [x1=10.00] [y1=0.80] [x2=10.00] [y2=12.40]
      LayoutSVGPath {svg:line} at (234,4) size 6x58 [stroke={[type=SOLID] [color=#008000]}] [fill={[type=SOLID] [color=#000000]}] [x1=47.40] [y1=0.80] [x2=47.40] [y2=12.40]
      LayoutSVGRect {svg:rect} at (50,4) size 187x57 [fill={[type=SOLID] [color=#FF0000] [opacity=0.40]}] [x=10.00] [y=0.80] [width=37.40] [height=11.40]
    LayoutSVGText {text} at (10,0) size 75x13 contains 1 chunk(s)
      LayoutSVGInlineText {#text} at (0,0) size 75x12
        chunk 1 text run 1 at (10.00,10.00) startOffset 0 endOffset 1 width 6.20: "T"
        chunk 1 text run 1 at (20.00,10.00) startOffset 0 endOffset 1 width 5.60: "h"
        chunk 1 text run 1 at (40.00,10.00) startOffset 0 endOffset 12 width 45.00: "is is a test"
selection start: position 0 of child 0 {#text} of child 5 {text} of child 0 {svg} of document
selection end:   position 4 of child 0 {#text} of child 5 {text} of child 0 {svg} of document
