This is a testharness.js-based test.
PASS html5lib_tests19.html 6135e0cbdbb22a97e8a13c2442c3e9a9e0a53298 
PASS html5lib_tests19.html 6b46dba2f4d7d1a08359ab21fe5e011463dd8746 
PASS html5lib_tests19.html bd558a6d89fae63fed9c0801e6fd8e8737bc8dc1 
PASS html5lib_tests19.html a7955e9f06178980cbc13fc4d548f196fef42b13 
PASS html5lib_tests19.html 2fda53e44aa91cb475f8b1aa57e938adcce60d4d 
PASS html5lib_tests19.html 9f55c21807de5c769197a9a2f29f836f08af050b 
PASS html5lib_tests19.html 197605d0b406dbb3de884de6949237dd33669997 
FAIL html5lib_tests19.html 73760ab95f224cf93922b45dbe5898005ada203c assert_equals: expected "#document\n| <!DOCTYPE html>\n| <html>\n|   <head>\n|   <body>\n|     <form>" but got "#document\n| <!DOCTYPE html>\n| <html>\n|   <head>\n|   <body>\n|     <form>\n|       <isindex>"
FAIL html5lib_tests19.html 1bba57ac3ccda8d4c7a79bde5342eede0bd10d8e assert_equals: expected "#document\n| <!DOCTYPE html>\n| <html>\n|   <head>\n|   <body>\n|     <form>\n|       action=\"POST\"\n|       <hr>\n|       <label>\n|         \"This is a searchable index. Enter search keywords: \"\n|         <input>\n|           name=\"isindex\"\n|       <hr>" but got "#document\n| <!DOCTYPE html>\n| <html>\n|   <head>\n|   <body>\n|     <isindex>\n|       action=\"POST\""
FAIL html5lib_tests19.html ce477c47f37eea25ad53c88915b75c801e41ee54 assert_equals: expected "#document\n| <!DOCTYPE html>\n| <html>\n|   <head>\n|   <body>\n|     <form>\n|       <hr>\n|       <label>\n|         \"this is isindex\"\n|         <input>\n|           name=\"isindex\"\n|       <hr>" but got "#document\n| <!DOCTYPE html>\n| <html>\n|   <head>\n|   <body>\n|     <isindex>\n|       prompt=\"this is isindex\""
FAIL html5lib_tests19.html 3b1730b917da1c33da80ee08d41573c44404c663 assert_equals: expected "#document\n| <!DOCTYPE html>\n| <html>\n|   <head>\n|   <body>\n|     <form>\n|       <hr>\n|       <label>\n|         \"This is a searchable index. Enter search keywords: \"\n|         <input>\n|           name=\"isindex\"\n|           type=\"hidden\"\n|       <hr>" but got "#document\n| <!DOCTYPE html>\n| <html>\n|   <head>\n|   <body>\n|     <isindex>\n|       type=\"hidden\""
FAIL html5lib_tests19.html 94d253ded5fe8c34906a57f0c16daf5f067cf386 assert_equals: expected "#document\n| <!DOCTYPE html>\n| <html>\n|   <head>\n|   <body>\n|     <form>\n|       <hr>\n|       <label>\n|         \"This is a searchable index. Enter search keywords: \"\n|         <input>\n|           name=\"isindex\"\n|       <hr>" but got "#document\n| <!DOCTYPE html>\n| <html>\n|   <head>\n|   <body>\n|     <isindex>\n|       name=\"foo\""
PASS html5lib_tests19.html ac6b608079815ad00c84b291ad6715eec523ccf4 
PASS html5lib_tests19.html a68acf7673e0c886fcf8cf609f3a39fb36362de5 
PASS html5lib_tests19.html 266157f051148b068dad52e9786a0bda96e851db 
PASS html5lib_tests19.html 2fd40bb6048be379000d73bc52a50405ca99b356 
PASS html5lib_tests19.html 19652e3b1ec783f279f527ddfb07073684520ab8 
PASS html5lib_tests19.html e5676878cff9332b572ebfd327e426f87e32ab4d 
PASS html5lib_tests19.html 03bbba49b30ec908e06e3c84e1fcede1ac7508ff 
PASS html5lib_tests19.html 5f9f25a089e72b4a4e5d7ebbacb440349c53f52f 
PASS html5lib_tests19.html d26f2542fc6fcee4e737b578c8db716a96a22ade 
PASS html5lib_tests19.html 0e8c4b181993b477f4f215d5724b99ad04f18b2d 
PASS html5lib_tests19.html e3f1de111562f25106efad76583a3b6c0e3516ba 
PASS html5lib_tests19.html 84db6521d1350830f3e46b7d9676527e1b4ee9e2 
PASS html5lib_tests19.html 033d9b356b2a646471de009fa8a75e40500d2dd2 
PASS html5lib_tests19.html 0971186f913b3c7f915817d2b82c73ea6487e932 
PASS html5lib_tests19.html 5257f17c3ecab5b65d74d7c27f0fd492f82ef9b9 
PASS html5lib_tests19.html b8c3379e60829428188fd57e974ea4d8a7e7ec45 
PASS html5lib_tests19.html f9ab61cdf08301bcf02208165cc94e6bdbad746c 
PASS html5lib_tests19.html c6aa9952dcccdde3fc6d4ba104647f049d038e66 
PASS html5lib_tests19.html 3984cbe166b42d77ff6dadc8e1687075db7a8e65 
PASS html5lib_tests19.html 2d78ba34eecedf8261e9a9e3f8858baf00a0d960 
PASS html5lib_tests19.html 8d45a57b7093df38c88dccb1f3fba6a62c810445 
PASS html5lib_tests19.html 871917ed049ff21b35e74e39de2ca1eef6863562 
PASS html5lib_tests19.html 74ad5d3026f1b3eb6553086eb2811eed4418e334 
PASS html5lib_tests19.html 0b1e97138c4d8e8d770f107202e46a18362fd587 
PASS html5lib_tests19.html 02624fcb7ddb77b15e9bc553d8392fc8cd031f68 
PASS html5lib_tests19.html a2579d287fd8111306e6dcd7248971a6baa4488d 
PASS html5lib_tests19.html acd1c9218828ea4367920c7a499c54de7f9a618f 
PASS html5lib_tests19.html 36a6346b03982942b4427d5089271a101ebf1605 
PASS html5lib_tests19.html e58ed5b56f81d057c23be31e068a10e694f52adf 
PASS html5lib_tests19.html d422166b880468765f34d89075d4db9c4fcbfee9 
PASS html5lib_tests19.html fc673f5874c0cf1477554dfb733d6292cc01558b 
PASS html5lib_tests19.html 0d2192c16cc224e770abff9e9e89e860aff9da78 
PASS html5lib_tests19.html d5941f6b68ef817d062636d0d61c24c68d0d86a2 
PASS html5lib_tests19.html 259a085138224e3dfe0dceded2a043e72a8b6d76 
PASS html5lib_tests19.html 869fff76cfe00ff33987de007ce98dc949bf8cbf 
PASS html5lib_tests19.html c06518cdbf3816faf265644d28d93b7aee9258f7 
PASS html5lib_tests19.html 2fb0cdb3a9f69ca6c3d564e01f89d7173cd51295 
PASS html5lib_tests19.html 138623cd07ccff1ce13bb1aa5dbaaadc962c414f 
PASS html5lib_tests19.html 52e4a8422d6ef591f33f8686842d974dbaa33302 
PASS html5lib_tests19.html 5ba1d0e97f121810025c1d6447a426c669661637 
PASS html5lib_tests19.html 709ec07924db4c9fd66d48eac08575dfdef01d8f 
PASS html5lib_tests19.html f72edb80bc3be091e4b448cd1de8fe851d623e05 
PASS html5lib_tests19.html cb7de0dc7e17c1454ceaa7eb49cb9f9476a1f510 
PASS html5lib_tests19.html 511bf4bae15c8119042e5e80b5358b70e7da26c1 
PASS html5lib_tests19.html c51ee24ef9d92206318cc5bbba784630cd10e531 
PASS html5lib_tests19.html 819d39ae49fd04f0dfce90ac8ed2f8e423bb9329 
FAIL html5lib_tests19.html ef6bdf5b3ba9d41d6c1c08ede60c2e7fb21c6d71 assert_equals: expected "#document\n| <!DOCTYPE html>\n| <html>\n|   <head>\n|   <body>\n|     <applet>" but got "#document\n| <!DOCTYPE html>\n| <html>\n|   <head>\n|   <frameset>"
PASS html5lib_tests19.html 6bf9c038255c31f20d8fbeaebdf3609eb3c9ed75 
PASS html5lib_tests19.html 08983ab2a54f61b09a1df134cdaf51d321f3ef32 
PASS html5lib_tests19.html 2ef94ed028fa71b70540cf41f0884ae0c1cf8077 
PASS html5lib_tests19.html 5c9ed202789fb29566e0d146d155e0d672e8a037 
PASS html5lib_tests19.html 7d766253cbf500df03506dfb7f2cbdd0f0f533c6 
PASS html5lib_tests19.html 4d5629c61993ef0bb83fcbd80ccc6ead7cd776ee 
PASS html5lib_tests19.html 6320d9fa3295984d3da7e4831ced75dfb97d4848 
PASS html5lib_tests19.html bdb97868e951b7a719fa8b1afc79650bf9aae7a5 
PASS html5lib_tests19.html 81868cde252694a252b6b0c8d366850f8a54736c 
PASS html5lib_tests19.html 20651db48147f8dda189c563f5fa60bfd0913ac0 
PASS html5lib_tests19.html d098e8a39897cd8453fc18399622e413872b054c 
PASS html5lib_tests19.html 0beb7903dcc0dbee206d8b6e729963a0461eedb3 
PASS html5lib_tests19.html 78e5cdb86bf2aecef4697d70d50499b50de5c25b 
PASS html5lib_tests19.html cfb1d482e5971a6915c90434f580721b772fc09b 
PASS html5lib_tests19.html 99d8bff8bbcca1c7faa7b6e10b9ff305b9f99594 
PASS html5lib_tests19.html daaa43db05ffe9bdd8d734a4389fb3c459caddf1 
PASS html5lib_tests19.html b3d421e57a4135731309152d7f47e26a4866f3d6 
PASS html5lib_tests19.html aa5eac4b7a0bafdafcd52cb190a8e181ff74144c 
PASS html5lib_tests19.html 91d56a57f4c8af2bce03e9974df0a80f62686fb4 
PASS html5lib_tests19.html 9cbad5cad719a63d2eb7721de6737a346ad42da1 
PASS html5lib_tests19.html 057c2e91a7e6053d39436efe2bc29049f6fa8e82 
PASS html5lib_tests19.html 61e6517e5e82cdaed41ab3e1f6fa927731aa0c82 
PASS html5lib_tests19.html 9274ab4f08baa52c5d7016f6062f186730cfbe6c 
PASS html5lib_tests19.html fc2fa41ebadc21653b38d70c1097bd4ac5979948 
PASS html5lib_tests19.html 473303e65f26fafacbaf01c11b04d745ff293963 
PASS html5lib_tests19.html 7854276e1637619f693cd87f64542c08c35d40bd 
PASS html5lib_tests19.html a2d262d392e8d10645ce559edf401df3f3872eb3 
PASS html5lib_tests19.html d5e50987bf495e285e279ff8670255d9b1314f5d 
PASS html5lib_tests19.html be54d7506e54a127a05b115a8659a5b52fa57f6c 
PASS html5lib_tests19.html af389f1a8ef93c457560fd2445df80a6789dab0d 
PASS html5lib_tests19.html 601dfa9502942deb8bf46a91c64f10f649bc1875 
PASS html5lib_tests19.html 4b01442faf29563d3b736d235515f77c20c81863 
PASS html5lib_tests19.html 696a2b60681b0b6758f165a67e29a84b0f75a153 
PASS html5lib_tests19.html 7a48b98cbae5cd7cbbb90f138c0d12da6c4448b3 
PASS html5lib_tests19.html d7693a0f2be68925250d3aa2cf295b1d1a60bf94 
PASS html5lib_tests19.html 9e4d91f02184de1b1e5d927144bb06d3bc78bb09 
PASS html5lib_tests19.html 9655591702381a52fe0eb3224e63e2d8bfd735e8 
PASS html5lib_tests19.html fe9aa1c8ec32796e26f3e58022f0e42dc365b5c7 
PASS html5lib_tests19.html 4c9ec04359c3e94d4a56d6932d289f0c4246d1ef 
PASS html5lib_tests19.html 3fcc2f15951b3c3375c3e359cf7888c71187994a 
PASS html5lib_tests19.html a94b35c317763de75150df6b436c7c153aeb8c51 
PASS html5lib_tests19.html 173b990198dd8fd9534d7808817c19440b75d406 
PASS html5lib_tests19.html 48ed5945491d4ad0c00acfd01c2060a459436d34 
PASS html5lib_tests19.html 392b8d4d25351467da961e4ab011a1d4e970b97a 
PASS html5lib_tests19.html bd14373173ea3617610fc8154237f59f1a810733 
PASS html5lib_tests19.html db3c4ddb389a2b8f42ca6b3719007d4de2eccc41 
PASS html5lib_tests19.html c1741a62627b2e5bb1cfa2b2cd667f3f9f76157e 
PASS html5lib_tests19.html 0d6cf626790e9f06e30ceb6baf3004663b0247e7 
Harness: the test ran to completion.

