layer at (0,0) size 800x600
  LayoutView at (0,0) size 800x600
layer at (0,0) size 800x600
  LayoutBlockFlow {HTML} at (0,0) size 800x600
    LayoutBlockFlow {BODY} at (8,8) size 784x584
      LayoutBlockFlow {H4} at (0,0) size 784x18
        LayoutText {#text} at (0,0) size 565x17
          text run at (0,0) width 565: "Try resizing the window horizantally - the red cell should be 195 pixels at all times."
      LayoutTable {TABLE} at (0,39.27) size 404x78 [bgcolor=#FFFF00] [border: (1px outset #808080)]
        LayoutTableSection {TBODY} at (1,1) size 402x76
          LayoutTableRow {TR} at (0,0) size 402x20
            LayoutTableCell {TD} at (0,9) size 202x2 [border: (1px inset #808080)] [r=0 c=0 rs=1 cs=1]
            LayoutTableCell {TD} at (202,9) size 102x2 [border: (1px inset #808080)] [r=0 c=1 rs=1 cs=1]
            LayoutTableCell {TD} at (304,0) size 98x20 [border: (1px inset #808080)] [r=0 c=2 rs=1 cs=1]
              LayoutText {#text} at (1,1) size 96x17
                text run at (1,1) width 96: "xxxxxxxxxxxx"
          LayoutTableRow {TR} at (0,20) size 402x56
            LayoutTableCell {TD} at (0,38) size 202x20 [border: (1px inset #808080)] [r=1 c=0 rs=1 cs=1]
              LayoutText {#text} at (1,1) size 4x17
                text run at (1,1) width 4: " "
            LayoutTableCell {TD} at (202,20) size 200x56 [bgcolor=#FF0000] [border: (1px inset #808080)] [r=1 c=1 rs=1 cs=2]
              LayoutText {#text} at (1,1) size 183x53
                text run at (1,1) width 183: "Now you can vote forTLJ as"
                text run at (1,19) width 112: "game of the year "
                text run at (112,19) width 54: "at Game"
                text run at (1,37) width 65: "Rankings."
      LayoutBlockFlow {HR} at (0,125.27) size 204x2 [border: (1px inset #EEEEEE)]
      LayoutBlockFlow {HR} at (0,135.27) size 385x2 [border: (1px inset #EEEEEE)]
      LayoutBlockFlow (anonymous) at (0,145.27) size 784x18
        LayoutText {#text} at (0,0) size 517x17
          text run at (0,0) width 517: "200*150 =3000twips 100*150=1500twips 180*150=1200twips sum: 5700 twips"
