CONSOLE WARNING: SVG's SMIL animations (<animate>, <set>, etc.) are deprecated and will be removed. Please use CSS animations or Web animations instead.
layer at (0,0) size 480x360
  LayoutView at (0,0) size 480x360
layer at (0,0) size 480x360
  LayoutSVGRoot {svg} at (0,0) size 480x360
    LayoutSVGContainer {g} at (0,12) size 445x251
      LayoutSVGText {text} at (91,12) size 268x16 contains 1 chunk(s)
        LayoutSVGInlineText {#text} at (0,0) size 267x16
          chunk 1 (middle anchor) text run 1 at (91.63,25.00) startOffset 0 endOffset 44 width 266.74: "Test rotate='auto' and rotate='auto-reverse'"
      LayoutSVGContainer {g} at (0,150) size 445x113
        LayoutSVGPath {path} at (24,150) size 152x75 [stroke={[type=SOLID] [color=#000000] [stroke width=2.00]}] [data="M 25 225 C 25 175 125 150 175 200"]
        LayoutSVGRect {rect} at (8,193) size 34x34 [stroke={[type=SOLID] [color=#000000] [stroke width=4.00]}] [fill={[type=SOLID] [color=#FFCCCC]}] [x=10.00] [y=195.00] [width=30.00] [height=30.00]
        LayoutSVGText {text} at (8,229) size 33x14 contains 1 chunk(s)
          LayoutSVGInlineText {#text} at (0,0) size 33x14
            chunk 1 (middle anchor) text run 1 at (8.99,240.00) startOffset 0 endOffset 6 width 32.02: "0 sec."
        LayoutSVGRect {rect} at (158,168) size 34x34 [stroke={[type=SOLID] [color=#000000] [stroke width=4.00]}] [fill={[type=SOLID] [color=#FFCCCC]}] [x=160.00] [y=170.00] [width=30.00] [height=30.00]
        LayoutSVGText {text} at (155,204) size 40x14 contains 1 chunk(s)
          LayoutSVGInlineText {#text} at (0,0) size 40x14
            chunk 1 (middle anchor) text run 1 at (155.49,215.00) startOffset 0 endOffset 7 width 39.02: "6+ sec."
        LayoutSVGPath {path} at (0,208) size 26x34 [transform={m=((0.00,-1.00)(1.00,0.00)) t=(25.00,225.00)}] [stroke={[type=SOLID] [color=#FF0000] [stroke width=2.00]}] [fill={[type=SOLID] [color=#0000FF]}] [data="M -15 0 L 0 -30 L 15 0 Z"]
        LayoutSVGText {text} at (61,247) size 78x16 contains 1 chunk(s)
          LayoutSVGInlineText {#text} at (0,0) size 77x16
            chunk 1 (middle anchor) text run 1 at (61.72,260.00) startOffset 0 endOffset 13 width 76.57: "rotate='auto'"
        LayoutSVGPath {path} at (274,150) size 152x75 [stroke={[type=SOLID] [color=#000000] [stroke width=2.00]}] [data="M 275 225 C 275 175 375 150 425 200"]
        LayoutSVGRect {rect} at (258,193) size 34x34 [stroke={[type=SOLID] [color=#000000] [stroke width=4.00]}] [fill={[type=SOLID] [color=#FFCCCC]}] [x=260.00] [y=195.00] [width=30.00] [height=30.00]
        LayoutSVGText {text} at (258,229) size 33x14 contains 1 chunk(s)
          LayoutSVGInlineText {#text} at (0,0) size 33x14
            chunk 1 (middle anchor) text run 1 at (258.99,240.00) startOffset 0 endOffset 6 width 32.02: "0 sec."
        LayoutSVGRect {rect} at (408,168) size 34x34 [stroke={[type=SOLID] [color=#000000] [stroke width=4.00]}] [fill={[type=SOLID] [color=#FFCCCC]}] [x=410.00] [y=170.00] [width=30.00] [height=30.00]
        LayoutSVGText {text} at (405,204) size 40x14 contains 1 chunk(s)
          LayoutSVGInlineText {#text} at (0,0) size 40x14
            chunk 1 (middle anchor) text run 1 at (405.49,215.00) startOffset 0 endOffset 7 width 39.02: "6+ sec."
        LayoutSVGPath {path} at (274,208) size 34x34 [transform={m=((0.00,1.00)(-1.00,0.00)) t=(275.00,225.00)}] [stroke={[type=SOLID] [color=#FF0000] [stroke width=2.00]}] [fill={[type=SOLID] [color=#0000FF]}] [data="M -15 0 L 0 -30 L 15 0 Z"]
        LayoutSVGText {text} at (286,247) size 128x16 contains 1 chunk(s)
          LayoutSVGInlineText {#text} at (0,0) size 128x16
            chunk 1 (middle anchor) text run 1 at (286.04,260.00) startOffset 0 endOffset 21 width 127.91: "rotate='auto-reverse'"
    LayoutSVGText {text} at (10,304) size 264x46 contains 1 chunk(s)
      LayoutSVGInlineText {#text} at (0,0) size 264x46
        chunk 1 text run 1 at (10.00,340.00) startOffset 0 endOffset 16 width 263.34: "$Revision: 1.8 $"
    LayoutSVGRect {rect} at (0,0) size 480x360 [stroke={[type=SOLID] [color=#000000]}] [x=1.00] [y=1.00] [width=478.00] [height=358.00]
