CONSOLE WARNING: SVG's SMIL animations (<animate>, <set>, etc.) are deprecated and will be removed. Please use CSS animations or Web animations instead.
layer at (0,0) size 480x360
  LayoutView at (0,0) size 480x360
layer at (0,0) size 480x360
  LayoutSVGRoot {svg} at (0,0) size 480x360
    LayoutSVGText {text} at (10,304) size 264x46 contains 1 chunk(s)
      LayoutSVGInlineText {#text} at (0,0) size 264x46
        chunk 1 text run 1 at (10.00,340.00) startOffset 0 endOffset 16 width 263.34: "$Revision: 1.6 $"
    LayoutSVGRect {rect} at (0,0) size 480x360 [stroke={[type=SOLID] [color=#000000]}] [x=1.00] [y=1.00] [width=478.00] [height=358.00]
    LayoutSVGText {text} at (217,12) size 46x23 contains 1 chunk(s)
      LayoutSVGInlineText {#text} at (0,0) size 45x23
        chunk 1 (middle anchor) text run 1 at (217.78,30.00) startOffset 0 endOffset 5 width 44.43: "begin"
    LayoutSVGContainer {g} at (111,58) size 239x212 [transform={m=((1.00,0.00)(0.00,1.00)) t=(100.00,80.00)}]
      LayoutSVGContainer {g} at (111,72) size 69x192 [transform={m=((1.00,0.00)(0.00,1.00)) t=(80.00,5.00)}]
        LayoutSVGText {text} at (-65,-13) size 65x17 contains 1 chunk(s)
          LayoutSVGInlineText {#text} at (0,0) size 65x17
            chunk 1 (end anchor) text run 1 at (-64.53,0.00) startOffset 0 endOffset 11 width 64.53: "unspecified"
        LayoutSVGText {text} at (-32,12) size 32x17 contains 1 chunk(s)
          LayoutSVGInlineText {#text} at (0,0) size 32x17
            chunk 1 (end anchor) text run 1 at (-31.88,25.00) startOffset 0 endOffset 6 width 31.88: "offset"
        LayoutSVGText {text} at (-59,37) size 59x17 contains 1 chunk(s)
          LayoutSVGInlineText {#text} at (0,0) size 59x17
            chunk 1 (end anchor) text run 1 at (-58.69,50.00) startOffset 0 endOffset 10 width 58.69: "event base"
        LayoutSVGText {text} at (-55,62) size 55x17 contains 1 chunk(s)
          LayoutSVGInlineText {#text} at (0,0) size 55x17
            chunk 1 (end anchor) text run 1 at (-54.04,75.00) startOffset 0 endOffset 9 width 54.04: "sync base"
        LayoutSVGText {text} at (-54,87) size 54x17 contains 1 chunk(s)
          LayoutSVGInlineText {#text} at (0,0) size 54x17
            chunk 1 (end anchor) text run 1 at (-53.65,100.00) startOffset 0 endOffset 10 width 53.65: "indefinite"
        LayoutSVGText {text} at (-44,112) size 44x17 contains 1 chunk(s)
          LayoutSVGInlineText {#text} at (0,0) size 44x17
            chunk 1 (end anchor) text run 1 at (-43.52,125.00) startOffset 0 endOffset 8 width 43.52: "repeat()"
        LayoutSVGText {text} at (-69,137) size 69x17 contains 1 chunk(s)
          LayoutSVGInlineText {#text} at (0,0) size 69x17
            chunk 1 (end anchor) text run 1 at (-68.40,150.00) startOffset 0 endOffset 11 width 68.40: "accessKey()"
        LayoutSVGText {text} at (-64,162) size 64x17 contains 1 chunk(s)
          LayoutSVGInlineText {#text} at (0,0) size 64x17
            chunk 1 (end anchor) text run 1 at (-63.75,175.00) startOffset 0 endOffset 11 width 63.75: "wallclock()"
      LayoutSVGContainer {g} at (196,58) size 152x9 [transform={m=((1.00,0.00)(0.00,1.00)) t=(100.00,-15.00)}]
        LayoutSVGText {text} at (-4,-7) size 8x9 contains 1 chunk(s)
          LayoutSVGInlineText {#text} at (0,0) size 8x9
            chunk 1 (middle anchor) text run 1 at (-3.56,0.00) startOffset 0 endOffset 2 width 7.11: "0s"
        LayoutSVGText {text} at (8,-7) size 8x9 contains 1 chunk(s)
          LayoutSVGInlineText {#text} at (0,0) size 8x9
            chunk 1 (middle anchor) text run 1 at (8.44,0.00) startOffset 0 endOffset 2 width 7.11: "1s"
        LayoutSVGText {text} at (20,-7) size 8x9 contains 1 chunk(s)
          LayoutSVGInlineText {#text} at (0,0) size 8x9
            chunk 1 (middle anchor) text run 1 at (20.44,0.00) startOffset 0 endOffset 2 width 7.11: "2s"
        LayoutSVGText {text} at (32,-7) size 8x9 contains 1 chunk(s)
          LayoutSVGInlineText {#text} at (0,0) size 8x9
            chunk 1 (middle anchor) text run 1 at (32.44,0.00) startOffset 0 endOffset 2 width 7.11: "3s"
        LayoutSVGText {text} at (44,-7) size 8x9 contains 1 chunk(s)
          LayoutSVGInlineText {#text} at (0,0) size 8x9
            chunk 1 (middle anchor) text run 1 at (44.44,0.00) startOffset 0 endOffset 2 width 7.11: "4s"
        LayoutSVGText {text} at (56,-7) size 8x9 contains 1 chunk(s)
          LayoutSVGInlineText {#text} at (0,0) size 8x9
            chunk 1 (middle anchor) text run 1 at (56.44,0.00) startOffset 0 endOffset 2 width 7.11: "5s"
        LayoutSVGText {text} at (68,-7) size 8x9 contains 1 chunk(s)
          LayoutSVGInlineText {#text} at (0,0) size 8x9
            chunk 1 (middle anchor) text run 1 at (68.44,0.00) startOffset 0 endOffset 2 width 7.11: "6s"
        LayoutSVGText {text} at (80,-7) size 8x9 contains 1 chunk(s)
          LayoutSVGInlineText {#text} at (0,0) size 8x9
            chunk 1 (middle anchor) text run 1 at (80.44,0.00) startOffset 0 endOffset 2 width 7.11: "7s"
        LayoutSVGText {text} at (92,-7) size 8x9 contains 1 chunk(s)
          LayoutSVGInlineText {#text} at (0,0) size 8x9
            chunk 1 (middle anchor) text run 1 at (92.44,0.00) startOffset 0 endOffset 2 width 7.11: "8s"
        LayoutSVGText {text} at (116,-7) size 8x9 contains 1 chunk(s)
          LayoutSVGInlineText {#text} at (0,0) size 8x9
            chunk 1 (middle anchor) text run 1 at (116.44,0.00) startOffset 0 endOffset 2 width 7.11: "0s"
        LayoutSVGText {text} at (128,-7) size 8x9 contains 1 chunk(s)
          LayoutSVGInlineText {#text} at (0,0) size 8x9
            chunk 1 (middle anchor) text run 1 at (128.44,0.00) startOffset 0 endOffset 2 width 7.11: "1s"
        LayoutSVGText {text} at (140,-7) size 8x9 contains 1 chunk(s)
          LayoutSVGInlineText {#text} at (0,0) size 8x9
            chunk 1 (middle anchor) text run 1 at (140.44,0.00) startOffset 0 endOffset 2 width 7.11: "2s"
      LayoutSVGContainer {g} at (194,70) size 156x200 [transform={m=((1.00,0.00)(0.00,8.00)) t=(94.00,-10.00)}]
        LayoutSVGRect {rect} at (194,70) size 12x200 [fill={[type=SOLID] [color=#EEEEEE]}] [x=0.00] [y=0.00] [width=12.00] [height=25.00]
        LayoutSVGRect {rect} at (206,70) size 12x200 [fill={[type=SOLID] [color=#DDDDDD]}] [x=12.00] [y=0.00] [width=12.00] [height=25.00]
        LayoutSVGRect {rect} at (218,70) size 12x200 [fill={[type=SOLID] [color=#EEEEEE]}] [x=24.00] [y=0.00] [width=12.00] [height=25.00]
        LayoutSVGRect {rect} at (230,70) size 12x200 [fill={[type=SOLID] [color=#DDDDDD]}] [x=36.00] [y=0.00] [width=12.00] [height=25.00]
        LayoutSVGRect {rect} at (242,70) size 12x200 [fill={[type=SOLID] [color=#EEEEEE]}] [x=48.00] [y=0.00] [width=12.00] [height=25.00]
        LayoutSVGRect {rect} at (254,70) size 12x200 [fill={[type=SOLID] [color=#DDDDDD]}] [x=60.00] [y=0.00] [width=12.00] [height=25.00]
        LayoutSVGRect {rect} at (266,70) size 12x200 [fill={[type=SOLID] [color=#EEEEEE]}] [x=72.00] [y=0.00] [width=12.00] [height=25.00]
        LayoutSVGRect {rect} at (278,70) size 12x200 [fill={[type=SOLID] [color=#DDDDDD]}] [x=84.00] [y=0.00] [width=12.00] [height=25.00]
        LayoutSVGRect {rect} at (290,70) size 12x200 [fill={[type=SOLID] [color=#EEEEEE]}] [x=96.00] [y=0.00] [width=12.00] [height=25.00]
        LayoutSVGRect {rect} at (314,70) size 12x200 [fill={[type=SOLID] [color=#EEEEEE]}] [x=120.00] [y=0.00] [width=12.00] [height=25.00]
        LayoutSVGRect {rect} at (326,70) size 12x200 [fill={[type=SOLID] [color=#DDDDDD]}] [x=132.00] [y=0.00] [width=12.00] [height=25.00]
        LayoutSVGRect {rect} at (338,70) size 12x200 [fill={[type=SOLID] [color=#EEEEEE]}] [x=144.00] [y=0.00] [width=12.00] [height=25.00]
      LayoutSVGContainer {g} at (194,74) size 156x187 [transform={m=((1.00,0.00)(0.00,1.00)) t=(100.00,0.00)}]
        LayoutSVGContainer {g} at (194,74) size 12x12
          LayoutSVGRect {rect} at (194,74) size 12x12 [fill={[type=SOLID] [color=#33FF33]}] [x=-6.00] [y=-6.00] [width=12.00] [height=12.00]
        LayoutSVGContainer {g} at (218,99) size 12x12 [transform={m=((1.00,0.00)(0.00,1.00)) t=(0.00,25.00)}]
          LayoutSVGRect {rect} at (218,99) size 12x12 [transform={m=((1.00,0.00)(0.00,1.00)) t=(24.00,0.00)}] [fill={[type=SOLID] [color=#FF3333]}] [x=-6.00] [y=-6.00] [width=12.00] [height=12.00]
        LayoutSVGContainer {g} at (314,124) size 36x12 [transform={m=((1.00,0.00)(0.00,1.00)) t=(0.00,50.00)}]
          LayoutSVGRect {rect} at (314,124) size 12x12 [transform={m=((1.00,0.00)(0.00,1.00)) t=(120.00,0.00)}] [fill={[type=SOLID] [color=#FF3333]}] [x=-6.00] [y=-6.00] [width=12.00] [height=12.00]
          LayoutSVGRect {rect} at (338,124) size 12x12 [transform={m=((1.00,0.00)(0.00,1.00)) t=(144.00,0.00)}] [fill={[type=SOLID] [color=#FF3333]}] [x=-6.00] [y=-6.00] [width=12.00] [height=12.00]
        LayoutSVGContainer {g} at (218,149) size 84x12 [transform={m=((1.00,0.00)(0.00,1.00)) t=(0.00,75.00)}]
          LayoutSVGRect {rect} at (218,149) size 12x12 [transform={m=((1.00,0.00)(0.00,1.00)) t=(24.00,0.00)}] [fill={[type=SOLID] [color=#FF3333]}] [x=-6.00] [y=-6.00] [width=12.00] [height=12.00]
          LayoutSVGRect {rect} at (242,149) size 12x12 [transform={m=((1.00,0.00)(0.00,1.00)) t=(48.00,0.00)}] [fill={[type=SOLID] [color=#FF3333]}] [x=-6.00] [y=-6.00] [width=12.00] [height=12.00]
          LayoutSVGRect {rect} at (266,149) size 12x12 [transform={m=((1.00,0.00)(0.00,1.00)) t=(72.00,0.00)}] [fill={[type=SOLID] [color=#FF3333]}] [x=-6.00] [y=-6.00] [width=12.00] [height=12.00]
          LayoutSVGRect {rect} at (290,149) size 12x12 [transform={m=((1.00,0.00)(0.00,1.00)) t=(96.00,0.00)}] [fill={[type=SOLID] [color=#FF3333]}] [x=-6.00] [y=-6.00] [width=12.00] [height=12.00]
        LayoutSVGContainer {g} at (194,174) size 12x12 [transform={m=((1.00,0.00)(0.00,1.00)) t=(0.00,100.00)}]
          LayoutSVGRect {rect} at (194,174) size 12x12 [fill={[type=SOLID] [color=#33FF33]}] [x=-6.00] [y=-6.00] [width=12.00] [height=12.00]
        LayoutSVGContainer {g} at (230,199) size 36x12 [transform={m=((1.00,0.00)(0.00,1.00)) t=(0.00,125.00)}]
          LayoutSVGRect {rect} at (230,199) size 12x12 [transform={m=((1.00,0.00)(0.00,1.00)) t=(36.00,0.00)}] [fill={[type=SOLID] [color=#FF3333]}] [x=-6.00] [y=-6.00] [width=12.00] [height=12.00]
          LayoutSVGRect {rect} at (254,199) size 12x12 [transform={m=((1.00,0.00)(0.00,1.00)) t=(60.00,0.00)}] [fill={[type=SOLID] [color=#FF3333]}] [x=-6.00] [y=-6.00] [width=12.00] [height=12.00]
        LayoutSVGContainer {g} at (314,224) size 36x12 [transform={m=((1.00,0.00)(0.00,1.00)) t=(0.00,150.00)}]
          LayoutSVGRect {rect} at (314,224) size 12x12 [transform={m=((1.00,0.00)(0.00,1.00)) t=(120.00,0.00)}] [fill={[type=SOLID] [color=#FF3333]}] [x=-6.00] [y=-6.00] [width=12.00] [height=12.00]
          LayoutSVGRect {rect} at (338,224) size 12x12 [transform={m=((1.00,0.00)(0.00,1.00)) t=(144.00,0.00)}] [fill={[type=SOLID] [color=#FF3333]}] [x=-6.00] [y=-6.00] [width=12.00] [height=12.00]
        LayoutSVGContainer {g} at (194,249) size 12x12 [transform={m=((1.00,0.00)(0.00,1.00)) t=(0.00,175.00)}]
          LayoutSVGRect {rect} at (194,249) size 12x12 [fill={[type=SOLID] [color=#33FF33]}] [x=-6.00] [y=-6.00] [width=12.00] [height=12.00]
