layer at (0,0) size 480x360
  LayoutView at (0,0) size 480x360
layer at (0,0) size 480x360
  LayoutSVGRoot {svg} at (0,0) size 480x360
    LayoutSVGContainer {g} at (10,27) size 470x239
      LayoutSVGText {text} at (10,27) size 475x41 contains 1 chunk(s)
        LayoutSVGInlineText {#text} at (0,0) size 475x41
          chunk 1 text run 1 at (10.00,60.00) startOffset 0 endOffset 31 width 474.22: "Basic paint: stroke properties."
      LayoutSVGPath {path} at (50,107) size 370x26 [stroke={[type=SOLID] [color=#FF0000] [stroke width=25.00] [dash array={10.00, 10.00}]}] [data="M 50 120 L 430 120"]
      LayoutSVGPath {path} at (50,127) size 380x26 [stroke={[type=SOLID] [color=#000000] [stroke width=25.00] [dash offset=10.00] [dash array={10.00, 10.00}]}] [data="M 50 140 L 430 140"]
      LayoutSVGText {text} at (65,183) size 348x33 contains 1 chunk(s)
        LayoutSVGInlineText {#text} at (0,0) size 348x33
          chunk 1 text run 1 at (65.00,210.00) startOffset 0 endOffset 25 width 347.31: "stroke-dasharray=\"10, 10\""
      LayoutSVGText {text} at (75,233) size 303x33 contains 1 chunk(s)
        LayoutSVGInlineText {#text} at (0,0) size 303x33
          chunk 1 text run 1 at (75.00,260.00) startOffset 0 endOffset 22 width 302.30: "stroke-dashoffset=\"10\""
    LayoutSVGText {text} at (10,304) size 284x46 contains 1 chunk(s)
      LayoutSVGInlineText {#text} at (0,0) size 284x46
        chunk 1 text run 1 at (10.00,340.00) startOffset 0 endOffset 17 width 283.34: "$Revision: 1.10 $"
    LayoutSVGRect {rect} at (0,0) size 480x360 [stroke={[type=SOLID] [color=#000000]}] [x=1.00] [y=1.00] [width=478.00] [height=358.00]
