layer at (0,0) size 800x600
  LayoutView at (0,0) size 800x600
layer at (0,0) size 800x410
  LayoutBlockFlow {HTML} at (0,0) size 800x410
    LayoutBlockFlow {BODY} at (8,8) size 784x394
      LayoutText {#text} at (0,0) size 458x17
        text run at (0,0) width 458: "Test for crbug.com/56580: There should be 9 highlighted instances of \""
      LayoutInline {SPAN} at (0,0) size 46x17
        LayoutText {#text} at (457,0) size 46x17
          text run at (457,0) width 46: "findme"
      LayoutText {#text} at (502,0) size 758x35
        text run at (502,0) width 138: "\". The 6th higlighted "
        text run at (639,0) width 119: "instance should be"
        text run at (0,18) width 43: "active."
      LayoutBR {BR} at (42,18) size 1x17
      LayoutBR {BR} at (0,36) size 0x17
      LayoutText {#text} at (0,54) size 91x17
        text run at (0,54) width 91: "Lorum ipsum "
      LayoutInline {SPAN} at (0,0) size 46x17
        LayoutText {#text} at (90,54) size 46x17
          text run at (90,54) width 46: "findme"
      LayoutText {#text} at (135,54) size 91x17
        text run at (135,54) width 91: " lorum ipsum "
      LayoutInline {SPAN} at (0,0) size 46x17
        LayoutText {#text} at (225,54) size 46x17
          text run at (225,54) width 46: "findme"
      LayoutInline {SPAN} at (0,0) size 46x17
        LayoutText {#text} at (270,54) size 46x17
          text run at (270,54) width 46: "findme"
      LayoutText {#text} at (315,54) size 48x17
        text run at (315,54) width 48: " lorum."
      LayoutBR {BR} at (362,54) size 1x17
      LayoutText {#text} at (0,72) size 53x17
        text run at (0,72) width 53: "longtext"
      LayoutInline {SPAN} at (0,0) size 46x17
        LayoutText {#text} at (52,72) size 46x17
          text run at (52,72) width 46: "findme"
      LayoutText {#text} at (97,72) size 45x17
        text run at (97,72) width 45: "noyou."
      LayoutBR {BR} at (141,72) size 1x17
      LayoutSVGRoot {svg} at (18,134) size 228x160
        LayoutSVGHiddenContainer {defs} at (0,0) size 0x0
          LayoutSVGPath {path} at (108,98) size 350x300 [fill={[type=SOLID] [color=#000000]}] [data="M 100 200 C 200 100 300 0 400 100 C 500 200 600 300 700 200 C 800 100 900 100 900 100"]
        LayoutSVGText {text} at (10,36) size 228x17 contains 1 chunk(s)
          LayoutSVGInlineText {#text} at (0,0) size 228x17
            chunk 1 text run 1 at (10.00,50.00) startOffset 0 endOffset 35 width 227.52: "Can you findme in this boring text?"
        LayoutSVGText {text} at (10,91) size 138x12 contains 1 chunk(s)
          LayoutSVGInlineText {#text} at (0,0) size 138x12
            chunk 1 text run 1 at (10.00,100.00) startOffset 0 endOffset 23 width 138.00: "Findme in a typewriter!"
        LayoutSVGContainer {g} at (28,222) size 202x72 [transform={m=((0.30,0.00)(0.00,0.30)) t=(0.00,120.00)}]
          LayoutSVGText {text} at (69,14) size 669x239 contains 1 chunk(s)
            LayoutSVGTextPath {textPath} at (0,0) size 669x238
              LayoutSVGInlineText {#text} at (0,0) size 669x238
                chunk 1 text run 1 at (109.48,190.53) startOffset 0 endOffset 1 width 26.67: "F"
                chunk 1 text run 2 at (122.50,177.58) startOffset 1 endOffset 2 width 10.00: "i"
                chunk 1 text run 3 at (135.53,164.80) startOffset 2 endOffset 3 width 26.67: "n"
                chunk 1 text run 4 at (154.82,146.40) startOffset 3 endOffset 4 width 26.67: "d"
                chunk 1 text run 5 at (178.39,125.18) startOffset 4 endOffset 5 width 36.67: "m"
                chunk 1 text run 6 at (202.97,105.12) startOffset 5 endOffset 6 width 26.67: "e"
                chunk 1 text run 7 at (220.54,92.43) startOffset 6 endOffset 7 width 16.67: " "
                chunk 1 text run 8 at (238.91,80.94) startOffset 7 endOffset 8 width 26.67: "o"
                chunk 1 text run 9 at (262.80,69.16) startOffset 8 endOffset 9 width 26.67: "n"
                chunk 1 text run 10 at (283.31,62.32) startOffset 9 endOffset 10 width 16.67: " "
                chunk 1 text run 11 at (304.62,58.84) startOffset 10 endOffset 11 width 26.67: "a"
                chunk 1 text run 12 at (326.23,59.54) startOffset 11 endOffset 12 width 16.67: " "
                chunk 1 text run 13 at (347.21,64.70) startOffset 12 endOffset 13 width 26.67: "p"
                chunk 1 text run 14 at (371.10,76.49) startOffset 13 endOffset 14 width 26.67: "a"
                chunk 1 text run 15 at (389.76,90.45) startOffset 14 endOffset 15 width 20.00: "t"
                chunk 1 text run 16 at (406.65,106.65) startOffset 15 endOffset 16 width 26.67: "h"
                chunk 1 text run 17 at (422.05,121.97) startOffset 16 endOffset 17 width 16.67: "!"
                chunk 1 text run 18 at (433.90,133.61) startOffset 17 endOffset 18 width 16.67: " "
                chunk 1 text run 19 at (450.74,149.77) startOffset 18 endOffset 19 width 30.00: "D"
                chunk 1 text run 20 at (465.45,163.37) startOffset 19 endOffset 20 width 10.00: "i"
                chunk 1 text run 21 at (479.18,175.50) startOffset 20 endOffset 21 width 26.67: "d"
                chunk 1 text run 22 at (495.84,189.32) startOffset 21 endOffset 22 width 16.67: " "
                chunk 1 text run 23 at (513.09,202.37) startOffset 22 endOffset 23 width 26.67: "y"
                chunk 1 text run 24 at (535.45,217.04) startOffset 23 endOffset 24 width 26.67: "o"
                chunk 1 text run 25 at (559.16,229.30) startOffset 24 endOffset 25 width 26.67: "u"
                chunk 1 text run 26 at (579.51,236.66) startOffset 25 endOffset 26 width 16.67: " "
                chunk 1 text run 27 at (595.71,240.18) startOffset 26 endOffset 27 width 16.67: "f"
                chunk 1 text run 28 at (608.98,241.37) startOffset 27 endOffset 28 width 10.00: "i"
                chunk 1 text run 29 at (627.25,240.32) startOffset 28 endOffset 29 width 26.67: "n"
                chunk 1 text run 30 at (652.86,233.10) startOffset 29 endOffset 30 width 26.67: "d"
                chunk 1 text run 31 at (680.18,217.26) startOffset 30 endOffset 31 width 36.67: "m"
                chunk 1 text run 32 at (703.93,196.12) startOffset 31 endOffset 32 width 26.67: "e"
                chunk 1 text run 33 at (722.35,179.24) startOffset 32 endOffset 33 width 23.33: "?"
            LayoutSVGInlineText {#text} at (0,0) size 0x0
      LayoutText {#text} at (0,0) size 0x0
