layer at (0,0) size 800x600
  LayoutView at (0,0) size 800x600
layer at (0,0) size 800x496
  LayoutBlockFlow {html} at (0,0) size 800x496
    LayoutBlockFlow {body} at (8,16) size 784x472
      LayoutBlockFlow {ul} at (0,0) size 784x108
        LayoutListItem {li} at (40,0) size 744x18 [bgcolor=#00FF00]
          LayoutListMarker (anonymous) at (-17,0) size 7x18: bullet
          LayoutText {#text} at (0,0) size 326x18
            text run at (0,0) width 326: "This first list item should have a green background"
        LayoutListItem {li} at (40,18) size 744x18
          LayoutListMarker (anonymous) at (-17,0) size 7x18: bullet
          LayoutText {#text} at (0,0) size 104x18
            text run at (0,0) width 104: "Second list item"
        LayoutListItem {li} at (40,36) size 744x18 [bgcolor=#00FF00]
          LayoutListMarker (anonymous) at (-17,0) size 7x18: bullet
          LayoutText {#text} at (0,0) size 330x18
            text run at (0,0) width 330: "This third list item should have a green background"
        LayoutListItem {li} at (40,54) size 744x18
          LayoutListMarker (anonymous) at (-17,0) size 7x18: bullet
          LayoutText {#text} at (0,0) size 99x18
            text run at (0,0) width 99: "Fourth list item"
        LayoutListItem {li} at (40,72) size 744x18 [bgcolor=#00FF00]
          LayoutListMarker (anonymous) at (-17,0) size 7x18: bullet
          LayoutText {#text} at (0,0) size 328x18
            text run at (0,0) width 328: "This fifth list item should have a green background"
        LayoutListItem {li} at (40,90) size 744x18
          LayoutListMarker (anonymous) at (-17,0) size 7x18: bullet
          LayoutText {#text} at (0,0) size 90x18
            text run at (0,0) width 90: "Sixth list item"
      LayoutBlockFlow {ol} at (0,124) size 784x108
        LayoutListItem {li} at (40,0) size 744x18
          LayoutListMarker (anonymous) at (-20,0) size 16x18: "1"
          LayoutText {#text} at (0,0) size 86x18
            text run at (0,0) width 86: "First list item"
        LayoutListItem {li} at (40,18) size 744x18 [bgcolor=#00FF00]
          LayoutListMarker (anonymous) at (-20,0) size 16x18: "2"
          LayoutText {#text} at (0,0) size 344x18
            text run at (0,0) width 344: "This second list item should have a green background"
        LayoutListItem {li} at (40,36) size 744x18
          LayoutListMarker (anonymous) at (-20,0) size 16x18: "3"
          LayoutText {#text} at (0,0) size 92x18
            text run at (0,0) width 92: "Third list item"
        LayoutListItem {li} at (40,54) size 744x18 [bgcolor=#00FF00]
          LayoutListMarker (anonymous) at (-20,0) size 16x18: "4"
          LayoutText {#text} at (0,0) size 339x18
            text run at (0,0) width 339: "This fourth list item should have a green background"
        LayoutListItem {li} at (40,72) size 744x18
          LayoutListMarker (anonymous) at (-20,0) size 16x18: "5"
          LayoutText {#text} at (0,0) size 88x18
            text run at (0,0) width 88: "Fifth list item"
        LayoutListItem {li} at (40,90) size 744x18 [bgcolor=#00FF00]
          LayoutListMarker (anonymous) at (-20,0) size 16x18: "6"
          LayoutText {#text} at (0,0) size 331x18
            text run at (0,0) width 331: "This sixth list item should have a green background"
      LayoutBlockFlow {div} at (0,248) size 784x224
        LayoutTable {table} at (0,0) size 163x148 [border: (1px outset #808080)]
          LayoutTableSection (anonymous) at (1,1) size 161x146
            LayoutTableRow {tr} at (0,2) size 161x22 [bgcolor=#00FF00]
              LayoutTableCell {td} at (2,2) size 105x22 [border: (1px inset #808080)] [r=0 c=0 rs=1 cs=1]
                LayoutText {#text} at (2,2) size 101x18
                  text run at (2,2) width 101: "Green row : 1.1"
              LayoutTableCell {td} at (109,2) size 24x22 [border: (1px inset #808080)] [r=0 c=1 rs=1 cs=1]
                LayoutText {#text} at (2,2) size 20x18
                  text run at (2,2) width 20: "1.2"
              LayoutTableCell {td} at (135,2) size 24x22 [border: (1px inset #808080)] [r=0 c=2 rs=1 cs=1]
                LayoutText {#text} at (2,2) size 20x18
                  text run at (2,2) width 20: "1.3"
            LayoutTableRow {tr} at (0,26) size 161x22 [bgcolor=#00FF00]
              LayoutTableCell {td} at (2,26) size 105x22 [border: (1px inset #808080)] [r=1 c=0 rs=1 cs=1]
                LayoutText {#text} at (2,2) size 101x18
                  text run at (2,2) width 101: "Green row : 2.1"
              LayoutTableCell {td} at (109,26) size 24x22 [border: (1px inset #808080)] [r=1 c=1 rs=1 cs=1]
                LayoutText {#text} at (2,2) size 20x18
                  text run at (2,2) width 20: "2.2"
              LayoutTableCell {td} at (135,26) size 24x22 [border: (1px inset #808080)] [r=1 c=2 rs=1 cs=1]
                LayoutText {#text} at (2,2) size 20x18
                  text run at (2,2) width 20: "2.3"
            LayoutTableRow {tr} at (0,50) size 161x22 [bgcolor=#00FF00]
              LayoutTableCell {td} at (2,50) size 105x22 [border: (1px inset #808080)] [r=2 c=0 rs=1 cs=1]
                LayoutText {#text} at (2,2) size 101x18
                  text run at (2,2) width 101: "Green row : 3.1"
              LayoutTableCell {td} at (109,50) size 24x22 [border: (1px inset #808080)] [r=2 c=1 rs=1 cs=1]
                LayoutText {#text} at (2,2) size 20x18
                  text run at (2,2) width 20: "3.2"
              LayoutTableCell {td} at (135,50) size 24x22 [border: (1px inset #808080)] [r=2 c=2 rs=1 cs=1]
                LayoutText {#text} at (2,2) size 20x18
                  text run at (2,2) width 20: "3.3"
            LayoutTableRow {tr} at (0,74) size 161x22 [bgcolor=#00FF00]
              LayoutTableCell {td} at (2,74) size 105x22 [border: (1px inset #808080)] [r=3 c=0 rs=1 cs=1]
                LayoutText {#text} at (2,2) size 101x18
                  text run at (2,2) width 101: "Green row : 4.1"
              LayoutTableCell {td} at (109,74) size 24x22 [border: (1px inset #808080)] [r=3 c=1 rs=1 cs=1]
                LayoutText {#text} at (2,2) size 20x18
                  text run at (2,2) width 20: "4.2"
              LayoutTableCell {td} at (135,74) size 24x22 [border: (1px inset #808080)] [r=3 c=2 rs=1 cs=1]
                LayoutText {#text} at (2,2) size 20x18
                  text run at (2,2) width 20: "4.3"
            LayoutTableRow {tr} at (0,98) size 161x22
              LayoutTableCell {td} at (2,98) size 105x22 [border: (1px inset #808080)] [r=4 c=0 rs=1 cs=1]
                LayoutText {#text} at (2,2) size 20x18
                  text run at (2,2) width 20: "5.1"
              LayoutTableCell {td} at (109,98) size 24x22 [border: (1px inset #808080)] [r=4 c=1 rs=1 cs=1]
                LayoutText {#text} at (2,2) size 20x18
                  text run at (2,2) width 20: "5.2"
              LayoutTableCell {td} at (135,98) size 24x22 [border: (1px inset #808080)] [r=4 c=2 rs=1 cs=1]
                LayoutText {#text} at (2,2) size 20x18
                  text run at (2,2) width 20: "5.3"
            LayoutTableRow {tr} at (0,122) size 161x22
              LayoutTableCell {td} at (2,122) size 105x22 [border: (1px inset #808080)] [r=5 c=0 rs=1 cs=1]
                LayoutText {#text} at (2,2) size 20x18
                  text run at (2,2) width 20: "6.1"
              LayoutTableCell {td} at (109,122) size 24x22 [border: (1px inset #808080)] [r=5 c=1 rs=1 cs=1]
                LayoutText {#text} at (2,2) size 20x18
                  text run at (2,2) width 20: "6.2"
              LayoutTableCell {td} at (135,122) size 24x22 [border: (1px inset #808080)] [r=5 c=2 rs=1 cs=1]
                LayoutText {#text} at (2,2) size 20x18
                  text run at (2,2) width 20: "6.3"
        LayoutTable {table} at (0,148) size 341x76 [border: (1px outset #808080)]
          LayoutTableSection (anonymous) at (1,1) size 339x74
            LayoutTableRow {tr} at (0,2) size 339x22
              LayoutTableCell {td} at (2,2) size 67x22 [bgcolor=#00FF00] [border: (1px inset #808080)] [r=0 c=0 rs=1 cs=1]
                LayoutText {#text} at (2,2) size 63x18
                  text run at (2,2) width 63: "green cell"
              LayoutTableCell {td} at (71,2) size 24x22 [border: (1px inset #808080)] [r=0 c=1 rs=1 cs=1]
                LayoutText {#text} at (2,2) size 20x18
                  text run at (2,2) width 20: "1.2"
              LayoutTableCell {td} at (97,2) size 24x22 [border: (1px inset #808080)] [r=0 c=2 rs=1 cs=1]
                LayoutText {#text} at (2,2) size 20x18
                  text run at (2,2) width 20: "1.3"
              LayoutTableCell {td} at (123,2) size 67x22 [bgcolor=#00FF00] [border: (1px inset #808080)] [r=0 c=3 rs=1 cs=1]
                LayoutText {#text} at (2,2) size 63x18
                  text run at (2,2) width 63: "green cell"
              LayoutTableCell {td} at (192,2) size 24x22 [border: (1px inset #808080)] [r=0 c=4 rs=1 cs=1]
                LayoutText {#text} at (2,2) size 20x18
                  text run at (2,2) width 20: "1.5"
              LayoutTableCell {td} at (218,2) size 24x22 [border: (1px inset #808080)] [r=0 c=5 rs=1 cs=1]
                LayoutText {#text} at (2,2) size 20x18
                  text run at (2,2) width 20: "1.6"
              LayoutTableCell {td} at (244,2) size 67x22 [bgcolor=#00FF00] [border: (1px inset #808080)] [r=0 c=6 rs=1 cs=1]
                LayoutText {#text} at (2,2) size 63x18
                  text run at (2,2) width 63: "green cell"
              LayoutTableCell {td} at (313,2) size 24x22 [border: (1px inset #808080)] [r=0 c=7 rs=1 cs=1]
                LayoutText {#text} at (2,2) size 20x18
                  text run at (2,2) width 20: "1.8"
            LayoutTableRow {tr} at (0,26) size 339x22
              LayoutTableCell {td} at (2,26) size 67x22 [bgcolor=#00FF00] [border: (1px inset #808080)] [r=1 c=0 rs=1 cs=1]
                LayoutText {#text} at (2,2) size 63x18
                  text run at (2,2) width 63: "green cell"
              LayoutTableCell {td} at (71,26) size 24x22 [border: (1px inset #808080)] [r=1 c=1 rs=1 cs=1]
                LayoutText {#text} at (2,2) size 20x18
                  text run at (2,2) width 20: "2.2"
              LayoutTableCell {td} at (97,26) size 24x22 [border: (1px inset #808080)] [r=1 c=2 rs=1 cs=1]
                LayoutText {#text} at (2,2) size 20x18
                  text run at (2,2) width 20: "2.3"
              LayoutTableCell {td} at (123,26) size 67x22 [bgcolor=#00FF00] [border: (1px inset #808080)] [r=1 c=3 rs=1 cs=1]
                LayoutText {#text} at (2,2) size 63x18
                  text run at (2,2) width 63: "green cell"
              LayoutTableCell {td} at (192,26) size 24x22 [border: (1px inset #808080)] [r=1 c=4 rs=1 cs=1]
                LayoutText {#text} at (2,2) size 20x18
                  text run at (2,2) width 20: "2.5"
              LayoutTableCell {td} at (218,26) size 24x22 [border: (1px inset #808080)] [r=1 c=5 rs=1 cs=1]
                LayoutText {#text} at (2,2) size 20x18
                  text run at (2,2) width 20: "2.6"
              LayoutTableCell {td} at (244,26) size 67x22 [bgcolor=#00FF00] [border: (1px inset #808080)] [r=1 c=6 rs=1 cs=1]
                LayoutText {#text} at (2,2) size 63x18
                  text run at (2,2) width 63: "green cell"
              LayoutTableCell {td} at (313,26) size 24x22 [border: (1px inset #808080)] [r=1 c=7 rs=1 cs=1]
                LayoutText {#text} at (2,2) size 20x18
                  text run at (2,2) width 20: "2.8"
            LayoutTableRow {tr} at (0,50) size 339x22
              LayoutTableCell {td} at (2,50) size 67x22 [bgcolor=#00FF00] [border: (1px inset #808080)] [r=2 c=0 rs=1 cs=1]
                LayoutText {#text} at (2,2) size 63x18
                  text run at (2,2) width 63: "green cell"
              LayoutTableCell {td} at (71,50) size 24x22 [border: (1px inset #808080)] [r=2 c=1 rs=1 cs=1]
                LayoutText {#text} at (2,2) size 20x18
                  text run at (2,2) width 20: "3.2"
              LayoutTableCell {td} at (97,50) size 24x22 [border: (1px inset #808080)] [r=2 c=2 rs=1 cs=1]
                LayoutText {#text} at (2,2) size 20x18
                  text run at (2,2) width 20: "3.3"
              LayoutTableCell {td} at (123,50) size 67x22 [bgcolor=#00FF00] [border: (1px inset #808080)] [r=2 c=3 rs=1 cs=1]
                LayoutText {#text} at (2,2) size 63x18
                  text run at (2,2) width 63: "green cell"
              LayoutTableCell {td} at (192,50) size 24x22 [border: (1px inset #808080)] [r=2 c=4 rs=1 cs=1]
                LayoutText {#text} at (2,2) size 20x18
                  text run at (2,2) width 20: "3.5"
              LayoutTableCell {td} at (218,50) size 24x22 [border: (1px inset #808080)] [r=2 c=5 rs=1 cs=1]
                LayoutText {#text} at (2,2) size 20x18
                  text run at (2,2) width 20: "3.6"
              LayoutTableCell {td} at (244,50) size 67x22 [bgcolor=#00FF00] [border: (1px inset #808080)] [r=2 c=6 rs=1 cs=1]
                LayoutText {#text} at (2,2) size 63x18
                  text run at (2,2) width 63: "green cell"
              LayoutTableCell {td} at (313,50) size 24x22 [border: (1px inset #808080)] [r=2 c=7 rs=1 cs=1]
                LayoutText {#text} at (2,2) size 20x18
                  text run at (2,2) width 20: "3.8"
