CONSOLE WARNING: SVG's SMIL animations (<animate>, <set>, etc.) are deprecated and will be removed. Please use CSS animations or Web animations instead.

SVG SMIL:
PASS: orient from [130] to [200grad] was [130] at 0
PASS: orient from [130] to [200grad] was [140] at 0.2
PASS: orient from [130] to [200grad] was [160] at 0.6
PASS: orient from [130] to [200grad] was [180] at 1
PASS: orient from [90deg] to [auto] was [90] at 0
PASS: orient from [90deg] to [auto] was [90] at 0.2
PASS: orient from [90deg] to [auto] was [auto] at 0.6
PASS: orient from [90deg] to [auto] was [auto] at 1

Web Animations API:
PASS: orient from [130] to [200grad] was [-20] at -3
PASS: orient from [130] to [200grad] was [130] at 0
PASS: orient from [130] to [200grad] was [140] at 0.2
PASS: orient from [130] to [200grad] was [160] at 0.6
PASS: orient from [130] to [200grad] was [180] at 1
PASS: orient from [130] to [200grad] was [200] at 1.4
PASS: orient from [90deg] to [auto] was [90] at -0.4
PASS: orient from [90deg] to [auto] was [90] at 0
PASS: orient from [90deg] to [auto] was [90] at 0.2
PASS: orient from [90deg] to [auto] was [auto] at 0.6
PASS: orient from [90deg] to [auto] was [auto] at 1
PASS: orient from [90deg] to [auto] was [auto] at 1.4

