layer at (0,0) size 800x600 clip at (0,0) size 785x600 scrollHeight 1682
  LayoutView at (0,0) size 800x600
layer at (0,0) size 785x1682 backgroundClip at (0,0) size 785x600 clip at (0,0) size 785x600
  LayoutBlockFlow {HTML} at (0,0) size 785x1682
    LayoutBlockFlow {BODY} at (8,16) size 769x1650
      LayoutBlockFlow {DIV} at (0,0) size 769x800
        LayoutBlockFlow {P} at (0,0) size 769x18
          LayoutText {#text} at (681,0) size 88x17
            text run at (681,0) width 88: "Right To Left"
        LayoutBlockFlow {P} at (0,34) size 769x18
          LayoutText {#text} at (434,0) size 335x17
            text run at (434,0) width 5 RTL: "."
            text run at (438,0) width 331: "Well-formed pair of unicode bidi control characters"
        LayoutBlockFlow {DIV} at (0,68) size 769x18
          LayoutText {#text} at (755,0) size 14x17
            text run at (755,0) width 1 RTL: "\x{202C}"
            text run at (755,0) width 6 RTL: "!"
            text run at (761,0) width 8: "\x{202B}b"
        LayoutBlockFlow {DIV} at (0,86) size 769x18
          LayoutText {#text} at (755,0) size 14x17
            text run at (755,0) width 1 RTL: "\x{202C}"
            text run at (755,0) width 14: "\x{202A}b!"
        LayoutBlockFlow {P} at (0,120) size 769x18
          LayoutText {#text} at (503,0) size 266x17
            text run at (503,0) width 5 RTL: "."
            text run at (507,0) width 262: "Unpaired unicode bidi control characters"
        LayoutBlockFlow {DIV} at (0,154) size 769x18
          LayoutText {#text} at (755,0) size 14x17
            text run at (755,0) width 6 RTL: "!"
            text run at (761,0) width 8: "\x{202B}b"
        LayoutBlockFlow {DIV} at (0,172) size 769x18
          LayoutText {#text} at (755,0) size 14x17
            text run at (755,0) width 14: "\x{202A}b!"
        LayoutBlockFlow {P} at (0,206) size 769x18
          LayoutText {#text} at (427,0) size 342x17
            text run at (427,0) width 5 RTL: "."
            text run at (431,0) width 338: "Empty content inside unicode bidi control characters"
        LayoutBlockFlow {DIV} at (0,240) size 769x18
          LayoutText {#text} at (769,0) size 0x17
            text run at (769,0) width 0 RTL: "\x{202C}\x{202C}"
        LayoutBlockFlow {DIV} at (0,258) size 769x18
          LayoutText {#text} at (769,0) size 0x17
            text run at (769,0) width 0: "\x{202A}"
            text run at (769,0) width 0 RTL: "\x{202A}"
        LayoutBlockFlow {DIV} at (0,276) size 769x18
          LayoutText {#text} at (769,0) size 0x17
            text run at (769,0) width 0 RTL: "\x{202B}"
            text run at (769,0) width 0 RTL: "\x{202B}"
        LayoutBlockFlow {P} at (0,310) size 769x18
          LayoutText {#text} at (481,0) size 288x17
            text run at (481,0) width 5 RTL: "."
            text run at (485,0) width 284: "String inside unicode bidi control characters"
        LayoutBlockFlow {DIV} at (0,344) size 769x18
          LayoutText {#text} at (746,0) size 23x17
            text run at (746,0) width 1 RTL: "\x{202C}"
            text run at (746,0) width 23: "\x{202C}abc"
        LayoutBlockFlow {DIV} at (0,362) size 769x18
          LayoutText {#text} at (746,0) size 23x17
            text run at (746,0) width 23: "\x{202A}abc"
            text run at (769,0) width 0 RTL: "\x{202A}"
        LayoutBlockFlow {DIV} at (0,380) size 769x18
          LayoutText {#text} at (746,0) size 23x17
            text run at (746,0) width 23: "\x{202B}abc"
            text run at (769,0) width 0 RTL: "\x{202B}"
        LayoutBlockFlow {P} at (0,414) size 769x18
          LayoutText {#text} at (475,0) size 294x17
            text run at (475,0) width 5 RTL: "."
            text run at (479,0) width 290: "String around unicode bidi control characters"
        LayoutBlockFlow {DIV} at (0,448) size 769x18
          LayoutText {#text} at (726,0) size 43x17
            text run at (726,0) width 1 RTL: "\x{202C}"
            text run at (726,0) width 43: "def\x{202C}abc"
        LayoutBlockFlow {DIV} at (0,466) size 769x18
          LayoutText {#text} at (726,0) size 43x17
            text run at (726,0) width 43: "\x{202C}abc\x{202C}def"
        LayoutBlockFlow {DIV} at (0,484) size 769x18
          LayoutText {#text} at (703,0) size 66x17
            text run at (703,0) width 66: "xyz\x{202C}abc\x{202C}def"
        LayoutBlockFlow {P} at (0,518) size 769x18
          LayoutText {#text} at (518,0) size 251x17
            text run at (518,0) width 5 RTL: "."
            text run at (522,0) width 247: "Nested unicode bidi control characters"
        LayoutBlockFlow {DIV} at (0,552) size 769x18
          LayoutText {#text} at (755,0) size 14x17
            text run at (755,0) width 1: "\x{202A}"
            text run at (755,0) width 1 RTL: "\x{202C}"
            text run at (755,0) width 14: "\x{202A}b!"
        LayoutBlockFlow {DIV} at (0,570) size 769x18
          LayoutText {#text} at (755,0) size 14x17
            text run at (755,0) width 1 RTL: "\x{202C}"
            text run at (755,0) width 6 RTL: "!"
            text run at (761,0) width 8: "\x{202B}b"
            text run at (769,0) width 0 RTL: "\x{202B}"
        LayoutBlockFlow {DIV} at (0,588) size 769x18
          LayoutText {#text} at (755,0) size 14x17
            text run at (755,0) width 6 RTL: "!\x{202C}"
            text run at (761,0) width 8: "\x{202C}\x{202C}b"
        LayoutBlockFlow {DIV} at (0,606) size 769x18
          LayoutText {#text} at (748,0) size 21x17
            text run at (748,0) width 1 RTL: "\x{202C}"
            text run at (748,0) width 9: "1"
            text run at (756,0) width 6 RTL: "!"
            text run at (761,0) width 8: "\x{202B}c"
            text run at (769,0) width 0 RTL: "\x{202C}"
        LayoutBlockFlow {P} at (0,640) size 769x18
          LayoutText {#text} at (485,0) size 284x17
            text run at (485,0) width 5 RTL: "."
            text run at (489,0) width 280: "Start with different directionality characters"
        LayoutBlockFlow {DIV} at (0,674) size 769x18
          LayoutText {#text} at (745,0) size 24x17
            text run at (745,0) width 0 RTL: "\x{202B}"
            text run at (745,0) width 0 RTL: "\x{202C}"
            text run at (745,0) width 8: "\x{202A}1"
            text run at (753,0) width 0 RTL: "\x{202C}"
            text run at (753,0) width 16: "12"
        LayoutBlockFlow {DIV} at (0,692) size 769x18
          LayoutText {#text} at (753,0) size 16x17
            text run at (753,0) width 0 RTL: "\x{202A}"
            text run at (753,0) width 0 RTL: "\x{202C}"
            text run at (753,0) width 16: "12"
        LayoutBlockFlow {DIV} at (0,710) size 769x18
          LayoutText {#text} at (752,0) size 17x17
            text run at (752,0) width 1 RTL: "\x{202A}"
            text run at (752,0) width 1 RTL: "\x{202C}"
            text run at (752,0) width 17: "\x{660}\x{661}"
        LayoutBlockFlow {DIV} at (0,728) size 769x18
          LayoutText {#text} at (752,0) size 17x17
            text run at (752,0) width 1 RTL: "\x{202A}"
            text run at (752,0) width 17 RTL: "\x{683}\x{684}\x{202C}"
        LayoutBlockFlow {DIV} at (0,746) size 769x18
          LayoutText {#text} at (769,0) size 0x17
            text run at (769,0) width 0 RTL: "\x{202A}"
            text run at (769,0) width 0 RTL: "\x{1}\x{202C}"
        LayoutBlockFlow {DIV} at (0,764) size 769x18
          LayoutText {#text} at (746,0) size 23x17
            text run at (746,0) width 23: "abc\x{202C}"
            text run at (769,0) width 0 RTL: "\x{202A}"
        LayoutBlockFlow {DIV} at (0,782) size 769x18
          LayoutText {#text} at (754,0) size 15x17
            text run at (754,0) width 1 RTL: "\x{202A}"
            text run at (754,0) width 15 RTL: "\x{5D0}\x{5D1}\x{202C}"
      LayoutBlockFlow {DIV} at (0,816) size 769x800
        LayoutBlockFlow {P} at (0,0) size 769x18
          LayoutText {#text} at (0,0) size 88x17
            text run at (0,0) width 88: "Left To Right"
        LayoutBlockFlow {P} at (0,34) size 769x18
          LayoutText {#text} at (0,0) size 335x17
            text run at (0,0) width 335: "Well-formed pair of unicode bidi control characters."
        LayoutBlockFlow {DIV} at (0,68) size 769x18
          LayoutText {#text} at (0,0) size 14x17
            text run at (0,0) width 6 RTL: "!"
            text run at (5,0) width 9: "\x{202B}b"
            text run at (13,0) width 1: "\x{202C}"
        LayoutBlockFlow {DIV} at (0,86) size 769x18
          LayoutText {#text} at (0,0) size 14x17
            text run at (0,0) width 14: "\x{202A}b!"
            text run at (13,0) width 1: "\x{202C}"
        LayoutBlockFlow {P} at (0,120) size 769x18
          LayoutText {#text} at (0,0) size 266x17
            text run at (0,0) width 266: "Unpaired unicode bidi control characters."
        LayoutBlockFlow {DIV} at (0,154) size 769x18
          LayoutText {#text} at (0,0) size 14x17
            text run at (0,0) width 14: "\x{202B}b!"
        LayoutBlockFlow {DIV} at (0,172) size 769x18
          LayoutText {#text} at (0,0) size 14x17
            text run at (0,0) width 14: "\x{202A}b!"
        LayoutBlockFlow {P} at (0,206) size 769x18
          LayoutText {#text} at (0,0) size 342x17
            text run at (0,0) width 342: "Empty content inside unicode bidi control characters."
        LayoutBlockFlow {DIV} at (0,240) size 769x18
          LayoutText {#text} at (0,0) size 0x17
            text run at (0,0) width 0: "\x{202C}\x{202C}"
        LayoutBlockFlow {DIV} at (0,258) size 769x18
          LayoutText {#text} at (0,0) size 0x17
            text run at (0,0) width 0: "\x{202A}"
            text run at (0,0) width 0: "\x{202A}"
        LayoutBlockFlow {DIV} at (0,276) size 769x18
          LayoutText {#text} at (0,0) size 0x17
            text run at (0,0) width 0: "\x{202B}"
            text run at (0,0) width 0 RTL: "\x{202B}"
        LayoutBlockFlow {P} at (0,310) size 769x18
          LayoutText {#text} at (0,0) size 288x17
            text run at (0,0) width 288: "String inside unicode bidi control characters."
        LayoutBlockFlow {DIV} at (0,344) size 769x18
          LayoutText {#text} at (0,0) size 23x17
            text run at (0,0) width 23: "\x{202C}abc\x{202C}"
        LayoutBlockFlow {DIV} at (0,362) size 769x18
          LayoutText {#text} at (0,0) size 23x17
            text run at (0,0) width 23: "\x{202A}abc"
            text run at (22,0) width 1: "\x{202A}"
        LayoutBlockFlow {DIV} at (0,380) size 769x18
          LayoutText {#text} at (0,0) size 23x17
            text run at (0,0) width 23: "\x{202B}abc"
            text run at (22,0) width 1: "\x{202B}"
        LayoutBlockFlow {P} at (0,414) size 769x18
          LayoutText {#text} at (0,0) size 294x17
            text run at (0,0) width 294: "String around unicode bidi control characters."
        LayoutBlockFlow {DIV} at (0,448) size 769x18
          LayoutText {#text} at (0,0) size 43x17
            text run at (0,0) width 43: "def\x{202C}abc\x{202C}"
        LayoutBlockFlow {DIV} at (0,466) size 769x18
          LayoutText {#text} at (0,0) size 43x17
            text run at (0,0) width 43: "\x{202C}abc\x{202C}def"
        LayoutBlockFlow {DIV} at (0,484) size 769x18
          LayoutText {#text} at (0,0) size 66x17
            text run at (0,0) width 66: "xyz\x{202C}abc\x{202C}def"
        LayoutBlockFlow {P} at (0,518) size 769x18
          LayoutText {#text} at (0,0) size 251x17
            text run at (0,0) width 251: "Nested unicode bidi control characters."
        LayoutBlockFlow {DIV} at (0,552) size 769x18
          LayoutText {#text} at (0,0) size 14x17
            text run at (0,0) width 0: "\x{202A}"
            text run at (0,0) width 14: "\x{202A}b!"
            text run at (13,0) width 1: "\x{202C}"
        LayoutBlockFlow {DIV} at (0,570) size 769x18
          LayoutText {#text} at (0,0) size 14x17
            text run at (0,0) width 6 RTL: "!"
            text run at (5,0) width 9: "\x{202B}b"
            text run at (13,0) width 1: "\x{202C}"
            text run at (13,0) width 1 RTL: "\x{202B}"
        LayoutBlockFlow {DIV} at (0,588) size 769x18
          LayoutText {#text} at (0,0) size 14x17
            text run at (0,0) width 14: "\x{202C}\x{202C}b!\x{202C}"
        LayoutBlockFlow {DIV} at (0,606) size 769x18
          LayoutText {#text} at (0,0) size 21x17
            text run at (0,0) width 8: "\x{202C}1"
            text run at (8,0) width 6 RTL: "!"
            text run at (13,0) width 8: "\x{202B}c"
            text run at (20,0) width 1: "\x{202C}"
        LayoutBlockFlow {P} at (0,640) size 769x18
          LayoutText {#text} at (0,0) size 284x17
            text run at (0,0) width 284: "Start with different directionality characters."
        LayoutBlockFlow {DIV} at (0,674) size 769x18
          LayoutText {#text} at (0,0) size 24x17
            text run at (0,0) width 16: "12\x{202C}"
            text run at (16,0) width 8: "\x{202A}1"
            text run at (24,0) width 0: "\x{202C}"
            text run at (24,0) width 0: "\x{202B}"
        LayoutBlockFlow {DIV} at (0,692) size 769x18
          LayoutText {#text} at (0,0) size 16x17
            text run at (0,0) width 16: "12\x{202C}"
            text run at (16,0) width 0: "\x{202A}"
        LayoutBlockFlow {DIV} at (0,710) size 769x18
          LayoutText {#text} at (0,0) size 17x17
            text run at (0,0) width 17: "\x{660}\x{661}"
            text run at (16,0) width 1: "\x{202C}"
            text run at (16,0) width 1: "\x{202A}"
        LayoutBlockFlow {DIV} at (0,728) size 769x18
          LayoutText {#text} at (0,0) size 17x17
            text run at (0,0) width 17 RTL: "\x{683}\x{684}"
            text run at (16,0) width 1: "\x{202C}"
            text run at (16,0) width 1: "\x{202A}"
        LayoutBlockFlow {DIV} at (0,746) size 769x18
          LayoutText {#text} at (0,0) size 0x17
            text run at (0,0) width 0: "\x{1}\x{202C}"
            text run at (0,0) width 0: "\x{202A}"
        LayoutBlockFlow {DIV} at (0,764) size 769x18
          LayoutText {#text} at (0,0) size 23x17
            text run at (0,0) width 23: "abc\x{202C}"
            text run at (22,0) width 1: "\x{202A}"
        LayoutBlockFlow {DIV} at (0,782) size 769x18
          LayoutText {#text} at (0,0) size 15x17
            text run at (0,0) width 15 RTL: "\x{5D0}\x{5D1}"
            text run at (14,0) width 1: "\x{202C}"
            text run at (14,0) width 1: "\x{202A}"
      LayoutBlockFlow {UL} at (0,1632) size 769x18
        LayoutListItem {LI} at (40,0) size 729x18
          LayoutListMarker (anonymous) at (-17,0) size 7x17: bullet
          LayoutText {#text} at (0,0) size 718x17
            text run at (0,0) width 718: "test id=test: the right-most character of rendering result of <PDF>abc<PDF> in RTL block should be c: Success"
selection start: position 3 of child 0 {#text} of child 20 {DIV} of child 1 {DIV} of body
selection end:   position 4 of child 0 {#text} of child 20 {DIV} of child 1 {DIV} of body
