layer at (0,0) size 800x600
  LayoutView at (0,0) size 800x600
layer at (0,0) size 800x70
  LayoutBlockFlow {HTML} at (0,0) size 800x70
    LayoutBlockFlow {BODY} at (8,8) size 784x54
      LayoutText {#text} at (0,0) size 754x54
        text run at (0,0) width 307: "You should see a 100x100 green square below. "
        text run at (306,0) width 373: "If you see nothing at all or see any red, the test has failed. "
        text run at (678,0) width 70: "This test is"
        text run at (0,18) width 298: "checking to make sure overflow is done using "
        text run at (297,18) width 457: "a containing block model, and that a fixed positioned element inside an"
        text run at (0,36) width 357: "absolute positioned element is not considered overflow."
      LayoutText {#text} at (0,0) size 0x0
layer at (8,62) size 100x100
  LayoutBlockFlow (positioned) {DIV} at (8,62) size 100x100
layer at (100,100) size 100x100
  LayoutBlockFlow (positioned) {DIV} at (100,100) size 100x100
layer at (200,200) size 100x100
  LayoutBlockFlow (positioned) {DIV} at (100,100) size 100x100 [bgcolor=#008000]
