{
  "bounds": [800, 600],
  "children": [
    {
      "bounds": [800, 600],
      "contentsOpaque": true,
      "drawsContent": true,
      "children": [
        {
          "position": [8, 108],
          "bounds": [200, 200],
          "drawsContent": true,
          "repaintRects": [
            [0, 167, 75, 17],
            [0, 149, 75, 17],
            [0, 131, 75, 17],
            [0, 113, 75, 17],
            [0, 95, 75, 17],
            [0, 77, 75, 17],
            [0, 59, 75, 17],
            [0, 41, 75, 17],
            [0, 23, 75, 17],
            [0, 5, 75, 17],
            [0, -13, 75, 17],
            [0, -31, 75, 17],
            [0, -49, 75, 17]
          ],
          "paintInvalidationClients": [
            "LayoutText #text",
            "InlineTextBox 'CONTENT'",
            "LayoutText #text",
            "InlineTextBox 'CONTENT'",
            "LayoutText #text",
            "InlineTextBox 'CONTENT'",
            "LayoutText #text",
            "InlineTextBox 'CONTENT'",
            "LayoutText #text",
            "InlineTextBox 'CONTENT'",
            "LayoutText #text",
            "InlineTextBox 'CONTENT'",
            "LayoutText #text",
            "InlineTextBox 'CONTENT'",
            "LayoutText #text",
            "InlineTextBox 'CONTENT'",
            "LayoutText #text",
            "InlineTextBox 'CONTENT'",
            "LayoutText #text",
            "InlineTextBox 'CONTENT'",
            "LayoutText #text",
            "InlineTextBox 'CONTENT'",
            "LayoutText #text",
            "InlineTextBox 'CONTENT'",
            "LayoutText #text",
            "InlineTextBox 'CONTENT'"
          ],
          "children": [
            {
              "bounds": [185, 185],
              "children": [
                {
                  "bounds": [185, 234],
                  "shouldFlattenTransform": false,
                  "drawsContent": true,
                  "repaintRects": [
                    [0, 216, 75, 17],
                    [0, 198, 75, 17],
                    [0, 180, 75, 17],
                    [0, 162, 75, 17],
                    [0, 144, 75, 17],
                    [0, 126, 75, 17],
                    [0, 108, 75, 17],
                    [0, 90, 75, 17],
                    [0, 72, 75, 17],
                    [0, 54, 75, 17],
                    [0, 36, 75, 17],
                    [0, 18, 75, 17],
                    [0, 0, 75, 17]
                  ],
                  "paintInvalidationClients": [
                    "LayoutText #text",
                    "InlineTextBox 'CONTENT'",
                    "LayoutText #text",
                    "InlineTextBox 'CONTENT'",
                    "LayoutText #text",
                    "InlineTextBox 'CONTENT'",
                    "LayoutText #text",
                    "InlineTextBox 'CONTENT'",
                    "LayoutText #text",
                    "InlineTextBox 'CONTENT'",
                    "LayoutText #text",
                    "InlineTextBox 'CONTENT'",
                    "LayoutText #text",
                    "InlineTextBox 'CONTENT'",
                    "LayoutText #text",
                    "InlineTextBox 'CONTENT'",
                    "LayoutText #text",
                    "InlineTextBox 'CONTENT'",
                    "LayoutText #text",
                    "InlineTextBox 'CONTENT'",
                    "LayoutText #text",
                    "InlineTextBox 'CONTENT'",
                    "LayoutText #text",
                    "InlineTextBox 'CONTENT'",
                    "LayoutText #text",
                    "InlineTextBox 'CONTENT'"
                  ],
                  "children": [
                    {
                      "shouldFlattenTransform": false
                    }
                  ]
                }
              ]
            },
            {
              "children": [
                {
                  "position": [0, 185],
                  "bounds": [185, 15],
                  "drawsContent": true
                },
                {
                  "position": [185, 0],
                  "bounds": [15, 185],
                  "drawsContent": true
                },
                {
                  "position": [185, 185],
                  "bounds": [15, 15],
                  "drawsContent": true
                }
              ]
            }
          ]
        }
      ]
    }
  ]
}

