layer at (0,0) size 800x600
  LayoutView at (0,0) size 800x600
layer at (0,0) size 800x206
  LayoutBlockFlow {html} at (0,0) size 800x206
    LayoutBlockFlow {body} at (8,16) size 784x182
      LayoutBlockFlow {p} at (0,0) size 784x18
        LayoutText {#text} at (0,0) size 304x18
          text run at (0,0) width 304: "In this test, the TFOOT text should be justified."
      LayoutTable {table} at (0,34) size 300x148 [border: (1px outset #808080)]
        LayoutTableSection {thead} at (1,1) size 298x26
          LayoutTableRow {tr} at (0,2) size 298x22
            LayoutTableCell {td} at (2,2) size 294x22 [border: (1px inset #808080)] [r=0 c=0 rs=1 cs=1]
              LayoutText {#text} at (2,2) size 170x18
                text run at (2,2) width 170: "This text is in the THEAD"
        LayoutTableSection {tfoot} at (1,51) size 298x96
          LayoutTableRow {tr} at (0,0) size 298x94
            LayoutTableCell {td} at (2,0) size 294x94 [border: (1px inset #808080)] [r=0 c=0 rs=1 cs=1]
              LayoutText {#text} at (2,2) size 290x90
                text run at (2,2) width 290: "This TFOOT text should be justified which"
                text run at (2,20) width 135: "means that the right "
                text run at (136,20) width 156: "and left margins should"
                text run at (2,38) width 290: "line up, no matter how long the content"
                text run at (2,56) width 290: "becomes (except the last line which should"
                text run at (2,74) width 97: "be left aligned)"
        LayoutTableSection {tbody} at (1,27) size 298x24
          LayoutTableRow {tr} at (0,0) size 298x22
            LayoutTableCell {td} at (2,0) size 294x22 [border: (1px inset #808080)] [r=0 c=0 rs=1 cs=1]
              LayoutText {#text} at (2,2) size 171x18
                text run at (2,2) width 171: "This text is in the TBODY"
