{
  "bounds": [800, 600],
  "children": [
    {
      "bounds": [800, 600],
      "contentsOpaque": true,
      "drawsContent": true,
      "children": [
        {
          "position": [8, 108],
          "bounds": [200, 200],
          "drawsContent": true,
          "repaintRects": [
            [0, 190, 74, 19],
            [0, 170, 74, 19],
            [0, 150, 74, 19],
            [0, 130, 74, 19],
            [0, 110, 74, 19],
            [0, 90, 74, 19],
            [0, 70, 74, 19],
            [0, 50, 74, 19],
            [0, 30, 74, 19],
            [0, 10, 74, 19],
            [0, -10, 74, 19],
            [0, -30, 74, 19],
            [0, -50, 74, 19]
          ],
          "paintInvalidationClients": [
            "LayoutText #text",
            "InlineTextBox 'CONTENT'",
            "LayoutText #text",
            "InlineTextBox 'CONTENT'",
            "LayoutText #text",
            "InlineTextBox 'CONTENT'",
            "LayoutText #text",
            "InlineTextBox 'CONTENT'",
            "LayoutText #text",
            "InlineTextBox 'CONTENT'",
            "LayoutText #text",
            "InlineTextBox 'CONTENT'",
            "LayoutText #text",
            "InlineTextBox 'CONTENT'",
            "LayoutText #text",
            "InlineTextBox 'CONTENT'",
            "LayoutText #text",
            "InlineTextBox 'CONTENT'",
            "LayoutText #text",
            "InlineTextBox 'CONTENT'",
            "LayoutText #text",
            "InlineTextBox 'CONTENT'",
            "LayoutText #text",
            "InlineTextBox 'CONTENT'",
            "LayoutText #text",
            "InlineTextBox 'CONTENT'"
          ],
          "children": [
            {
              "bounds": [185, 185],
              "children": [
                {
                  "bounds": [185, 260],
                  "shouldFlattenTransform": false,
                  "drawsContent": true,
                  "repaintRects": [
                    [0, 240, 74, 19],
                    [0, 220, 74, 19],
                    [0, 200, 74, 19],
                    [0, 180, 74, 19],
                    [0, 160, 74, 19],
                    [0, 140, 74, 19],
                    [0, 120, 74, 19],
                    [0, 100, 74, 19],
                    [0, 80, 74, 19],
                    [0, 60, 74, 19],
                    [0, 40, 74, 19],
                    [0, 20, 74, 19],
                    [0, 0, 74, 19]
                  ],
                  "paintInvalidationClients": [
                    "LayoutText #text",
                    "InlineTextBox 'CONTENT'",
                    "LayoutText #text",
                    "InlineTextBox 'CONTENT'",
                    "LayoutText #text",
                    "InlineTextBox 'CONTENT'",
                    "LayoutText #text",
                    "InlineTextBox 'CONTENT'",
                    "LayoutText #text",
                    "InlineTextBox 'CONTENT'",
                    "LayoutText #text",
                    "InlineTextBox 'CONTENT'",
                    "LayoutText #text",
                    "InlineTextBox 'CONTENT'",
                    "LayoutText #text",
                    "InlineTextBox 'CONTENT'",
                    "LayoutText #text",
                    "InlineTextBox 'CONTENT'",
                    "LayoutText #text",
                    "InlineTextBox 'CONTENT'",
                    "LayoutText #text",
                    "InlineTextBox 'CONTENT'",
                    "LayoutText #text",
                    "InlineTextBox 'CONTENT'",
                    "LayoutText #text",
                    "InlineTextBox 'CONTENT'"
                  ],
                  "children": [
                    {
                      "shouldFlattenTransform": false
                    }
                  ]
                }
              ]
            },
            {
              "children": [
                {
                  "position": [0, 185],
                  "bounds": [185, 15],
                  "drawsContent": true
                },
                {
                  "position": [185, 0],
                  "bounds": [15, 185],
                  "drawsContent": true
                },
                {
                  "position": [185, 185],
                  "bounds": [15, 15],
                  "drawsContent": true
                }
              ]
            }
          ]
        }
      ]
    }
  ]
}

