layer at (0,0) size 800x600
  LayoutView at (0,0) size 800x600
layer at (0,0) size 800x391
  LayoutBlockFlow {HTML} at (0,0) size 800x391
    LayoutBlockFlow {BODY} at (8,16) size 784x359
      LayoutBlockFlow {P} at (0,0) size 784x36
        LayoutText {#text} at (0,0) size 177x18
          text run at (0,0) width 177: "This is a regression test for "
        LayoutInline {I} at (0,0) size 751x36
          LayoutInline {A} at (0,0) size 355x18 [color=#0000EE]
            LayoutText {#text} at (176,0) size 355x18
              text run at (176,0) width 355: "http://bugzilla.opendarwin.org/show_bug.cgi?id=9122"
          LayoutText {#text} at (530,0) size 751x36
            text run at (530,0) width 5: " "
            text run at (534,0) width 217: "REGRESSION: Incorrect vertical"
            text run at (0,18) width 313: "position for text fields in a \"display: table\" block"
        LayoutText {#text} at (312,18) size 5x18
          text run at (312,18) width 5: "."
      LayoutBlockFlow {P} at (0,52) size 784x36
        LayoutText {#text} at (0,0) size 756x36
          text run at (0,0) width 756: "Type something in the text field. Resize the window. The text field should not jump down. Delete what you typed and"
          text run at (0,18) width 326: "resize the window. The text field should not move."
      LayoutBlockFlow {FORM} at (0,104) size 784x255
        LayoutTable {DL} at (0,0) size 148x19
          LayoutTableSection (anonymous) at (0,0) size 148x19
            LayoutTableRow {DIV} at (0,0) size 148x19
              LayoutTableCell {DT} at (0,0) size 25x18 [r=0 c=0 rs=1 cs=1]
                LayoutText {#text} at (0,0) size 25x18
                  text run at (0,0) width 25: "Foo"
              LayoutTableCell {DD} at (25,0) size 123x19 [r=0 c=1 rs=1 cs=1]
                LayoutTextControl {INPUT} at (0,0) size 123x19 [bgcolor=#FFFFFF] [border: (2px inset #EEEEEE)]
        LayoutBlockFlow {HR} at (0,35) size 784x2 [border: (1px inset #EEEEEE)]
        LayoutBlockFlow {P} at (0,53) size 784x36
          LayoutText {#text} at (0,0) size 771x36
            text run at (0,0) width 771: "And here's more. There should not be a difference in distance between the labels, nor any difference in distance between"
            text run at (0,18) width 92: "the text fields."
        LayoutTable {DL} at (0,105) size 237x150
          LayoutTableSection (anonymous) at (0,0) size 237x150
            LayoutTableRow {DIV} at (0,0) size 237x19
              LayoutTableCell {DT} at (0,0) size 25x18 [r=0 c=0 rs=1 cs=1]
                LayoutText {#text} at (0,0) size 25x18
                  text run at (0,0) width 25: "Foo"
              LayoutTableCell {DD} at (25,0) size 212x19 [r=0 c=1 rs=1 cs=1]
                LayoutTextControl {INPUT} at (0,0) size 123x19 [bgcolor=#FFFFFF] [border: (2px inset #EEEEEE)]
            LayoutTableRow {DIV} at (0,19) size 237x19
              LayoutTableCell {DT} at (0,19) size 25x18 [r=1 c=0 rs=1 cs=1]
                LayoutText {#text} at (0,0) size 25x18
                  text run at (0,0) width 25: "Foo"
              LayoutTableCell {DD} at (25,19) size 212x19 [r=1 c=1 rs=1 cs=1]
                LayoutTextControl {INPUT} at (0,0) size 123x19 [bgcolor=#FFFFFF] [border: (2px inset #EEEEEE)]
            LayoutTableRow {DIV} at (0,38) size 237x19
              LayoutTableCell {DT} at (0,38) size 25x18 [r=2 c=0 rs=1 cs=1]
                LayoutText {#text} at (0,0) size 25x18
                  text run at (0,0) width 25: "Foo"
              LayoutTableCell {DD} at (25,38) size 212x19 [r=2 c=1 rs=1 cs=1]
                LayoutTextControl {INPUT} at (0,0) size 123x19 [bgcolor=#FFFFFF] [border: (2px inset #EEEEEE)]
            LayoutTableRow {DIV} at (0,57) size 237x19
              LayoutTableCell {DT} at (0,57) size 25x18 [r=3 c=0 rs=1 cs=1]
                LayoutText {#text} at (0,0) size 25x18
                  text run at (0,0) width 25: "Foo"
              LayoutTableCell {DD} at (25,57) size 212x19 [r=3 c=1 rs=1 cs=1]
                LayoutTextControl {INPUT} at (0,0) size 123x19 [bgcolor=#FFFFFF] [border: (2px inset #EEEEEE)]
            LayoutTableRow {DIV} at (0,76) size 237x19
              LayoutTableCell {DT} at (0,76) size 25x18 [r=4 c=0 rs=1 cs=1]
                LayoutText {#text} at (0,0) size 25x18
                  text run at (0,0) width 25: "Foo"
              LayoutTableCell {DD} at (25,76) size 212x19 [r=4 c=1 rs=1 cs=1]
                LayoutTextControl {INPUT} at (0,0) size 123x19 [bgcolor=#FFFFFF] [border: (2px inset #EEEEEE)]
            LayoutTableRow {DIV} at (0,95) size 237x19
              LayoutTableCell {DT} at (0,95) size 25x18 [r=5 c=0 rs=1 cs=1]
                LayoutText {#text} at (0,0) size 25x18
                  text run at (0,0) width 25: "Foo"
              LayoutTableCell {DD} at (25,95) size 212x19 [r=5 c=1 rs=1 cs=1]
                LayoutTextControl {INPUT} at (0,0) size 123x19 [bgcolor=#FFFFFF] [border: (2px inset #EEEEEE)]
            LayoutTableRow {DIV} at (0,114) size 237x36
              LayoutTableCell {DT} at (0,132) size 25x18 [r=6 c=0 rs=1 cs=1]
                LayoutText {#text} at (0,0) size 25x18
                  text run at (0,0) width 25: "Foo"
              LayoutTableCell {DD} at (25,114) size 212x36 [r=6 c=1 rs=1 cs=1]
                LayoutBlockFlow {DIV} at (0,0) size 211.97x36
                  LayoutBR {BR} at (0,0) size 0x18
                  LayoutText {#text} at (0,18) size 212x18
                    text run at (0,18) width 212: "Bar (should be aligned with Foo)"
layer at (36,123) size 117x13
  LayoutBlockFlow {DIV} at (3,3) size 117x13
layer at (36,228) size 117x13
  LayoutBlockFlow {DIV} at (3,3) size 117x13
layer at (36,247) size 117x13
  LayoutBlockFlow {DIV} at (3,3) size 117x13
layer at (36,266) size 117x13
  LayoutBlockFlow {DIV} at (3,3) size 117x13
    LayoutText {#text} at (0,0) size 17x13
      text run at (0,0) width 17: "Bar"
layer at (36,285) size 117x13
  LayoutBlockFlow {DIV} at (3,3) size 117x13
    LayoutText {#text} at (0,0) size 17x13
      text run at (0,0) width 17: "Bar"
layer at (36,304) size 117x13
  LayoutBlockFlow {DIV} at (3,3) size 117x13
layer at (36,323) size 117x13
  LayoutBlockFlow {DIV} at (3,3) size 117x13
